{
  "contractName": "IERC721Enumerable",
  "abi": [
    {
      "constant": true,
      "inputs": [
        {
          "name": "interfaceId",
          "type": "bytes4"
        }
      ],
      "name": "supportsInterface",
      "outputs": [
        {
          "name": "",
          "type": "bool"
        }
      ],
      "payable": false,
      "stateMutability": "view",
      "type": "function"
    },
    {
      "constant": true,
      "inputs": [
        {
          "name": "tokenId",
          "type": "uint256"
        }
      ],
      "name": "getApproved",
      "outputs": [
        {
          "name": "operator",
          "type": "address"
        }
      ],
      "payable": false,
      "stateMutability": "view",
      "type": "function"
    },
    {
      "constant": false,
      "inputs": [
        {
          "name": "to",
          "type": "address"
        },
        {
          "name": "tokenId",
          "type": "uint256"
        }
      ],
      "name": "approve",
      "outputs": [],
      "payable": false,
      "stateMutability": "nonpayable",
      "type": "function"
    },
    {
      "constant": false,
      "inputs": [
        {
          "name": "from",
          "type": "address"
        },
        {
          "name": "to",
          "type": "address"
        },
        {
          "name": "tokenId",
          "type": "uint256"
        }
      ],
      "name": "transferFrom",
      "outputs": [],
      "payable": false,
      "stateMutability": "nonpayable",
      "type": "function"
    },
    {
      "constant": false,
      "inputs": [
        {
          "name": "from",
          "type": "address"
        },
        {
          "name": "to",
          "type": "address"
        },
        {
          "name": "tokenId",
          "type": "uint256"
        }
      ],
      "name": "safeTransferFrom",
      "outputs": [],
      "payable": false,
      "stateMutability": "nonpayable",
      "type": "function"
    },
    {
      "constant": true,
      "inputs": [
        {
          "name": "tokenId",
          "type": "uint256"
        }
      ],
      "name": "ownerOf",
      "outputs": [
        {
          "name": "owner",
          "type": "address"
        }
      ],
      "payable": false,
      "stateMutability": "view",
      "type": "function"
    },
    {
      "constant": true,
      "inputs": [
        {
          "name": "owner",
          "type": "address"
        }
      ],
      "name": "balanceOf",
      "outputs": [
        {
          "name": "balance",
          "type": "uint256"
        }
      ],
      "payable": false,
      "stateMutability": "view",
      "type": "function"
    },
    {
      "constant": false,
      "inputs": [
        {
          "name": "operator",
          "type": "address"
        },
        {
          "name": "_approved",
          "type": "bool"
        }
      ],
      "name": "setApprovalForAll",
      "outputs": [],
      "payable": false,
      "stateMutability": "nonpayable",
      "type": "function"
    },
    {
      "constant": false,
      "inputs": [
        {
          "name": "from",
          "type": "address"
        },
        {
          "name": "to",
          "type": "address"
        },
        {
          "name": "tokenId",
          "type": "uint256"
        },
        {
          "name": "data",
          "type": "bytes"
        }
      ],
      "name": "safeTransferFrom",
      "outputs": [],
      "payable": false,
      "stateMutability": "nonpayable",
      "type": "function"
    },
    {
      "constant": true,
      "inputs": [
        {
          "name": "owner",
          "type": "address"
        },
        {
          "name": "operator",
          "type": "address"
        }
      ],
      "name": "isApprovedForAll",
      "outputs": [
        {
          "name": "",
          "type": "bool"
        }
      ],
      "payable": false,
      "stateMutability": "view",
      "type": "function"
    },
    {
      "anonymous": false,
      "inputs": [
        {
          "indexed": true,
          "name": "from",
          "type": "address"
        },
        {
          "indexed": true,
          "name": "to",
          "type": "address"
        },
        {
          "indexed": true,
          "name": "tokenId",
          "type": "uint256"
        }
      ],
      "name": "Transfer",
      "type": "event"
    },
    {
      "anonymous": false,
      "inputs": [
        {
          "indexed": true,
          "name": "owner",
          "type": "address"
        },
        {
          "indexed": true,
          "name": "approved",
          "type": "address"
        },
        {
          "indexed": true,
          "name": "tokenId",
          "type": "uint256"
        }
      ],
      "name": "Approval",
      "type": "event"
    },
    {
      "anonymous": false,
      "inputs": [
        {
          "indexed": true,
          "name": "owner",
          "type": "address"
        },
        {
          "indexed": true,
          "name": "operator",
          "type": "address"
        },
        {
          "indexed": false,
          "name": "approved",
          "type": "bool"
        }
      ],
      "name": "ApprovalForAll",
      "type": "event"
    },
    {
      "constant": true,
      "inputs": [],
      "name": "totalSupply",
      "outputs": [
        {
          "name": "",
          "type": "uint256"
        }
      ],
      "payable": false,
      "stateMutability": "view",
      "type": "function"
    },
    {
      "constant": true,
      "inputs": [
        {
          "name": "owner",
          "type": "address"
        },
        {
          "name": "index",
          "type": "uint256"
        }
      ],
      "name": "tokenOfOwnerByIndex",
      "outputs": [
        {
          "name": "tokenId",
          "type": "uint256"
        }
      ],
      "payable": false,
      "stateMutability": "view",
      "type": "function"
    },
    {
      "constant": true,
      "inputs": [
        {
          "name": "index",
          "type": "uint256"
        }
      ],
      "name": "tokenByIndex",
      "outputs": [
        {
          "name": "",
          "type": "uint256"
        }
      ],
      "payable": false,
      "stateMutability": "view",
      "type": "function"
    }
  ],
  "metadata": "",
  "bytecode": "0x",
  "deployedBytecode": "0x",
  "sourceMap": "",
  "deployedSourceMap": "",
  "source": "pragma solidity ^0.4.24;\n\nimport \"./IERC721.sol\";\n\n/**\n * @title ERC-721 Non-Fungible Token Standard, optional enumeration extension\n * @dev See https://github.com/ethereum/EIPs/blob/master/EIPS/eip-721.md\n */\ncontract IERC721Enumerable is IERC721 {\n  function totalSupply() public view returns (uint256);\n  function tokenOfOwnerByIndex(\n    address owner,\n    uint256 index\n  )\n    public\n    view\n    returns (uint256 tokenId);\n\n  function tokenByIndex(uint256 index) public view returns (uint256);\n}\n",
  "sourcePath": "/home/truffle-project/contracts/openzeppelin/token/ERC721/IERC721Enumerable.sol",
  "ast": {
    "absolutePath": "/home/truffle-project/contracts/openzeppelin/token/ERC721/IERC721Enumerable.sol",
    "exportedSymbols": {
      "IERC721Enumerable": [
        9524
      ]
    },
    "id": 9525,
    "nodeType": "SourceUnit",
    "nodes": [
      {
        "id": 9499,
        "literals": [
          "solidity",
          "^",
          "0.4",
          ".24"
        ],
        "nodeType": "PragmaDirective",
        "src": "0:24:109"
      },
      {
        "absolutePath": "/home/truffle-project/contracts/openzeppelin/token/ERC721/IERC721.sol",
        "file": "./IERC721.sol",
        "id": 9500,
        "nodeType": "ImportDirective",
        "scope": 9525,
        "sourceUnit": 9498,
        "src": "26:23:109",
        "symbolAliases": [],
        "unitAlias": ""
      },
      {
        "baseContracts": [
          {
            "arguments": null,
            "baseName": {
              "contractScope": null,
              "id": 9501,
              "name": "IERC721",
              "nodeType": "UserDefinedTypeName",
              "referencedDeclaration": 9497,
              "src": "240:7:109",
              "typeDescriptions": {
                "typeIdentifier": "t_contract$_IERC721_$9497",
                "typeString": "contract IERC721"
              }
            },
            "id": 9502,
            "nodeType": "InheritanceSpecifier",
            "src": "240:7:109"
          }
        ],
        "contractDependencies": [
          4009,
          9497
        ],
        "contractKind": "contract",
        "documentation": "@title ERC-721 Non-Fungible Token Standard, optional enumeration extension\n@dev See https://github.com/ethereum/EIPs/blob/master/EIPS/eip-721.md",
        "fullyImplemented": false,
        "id": 9524,
        "linearizedBaseContracts": [
          9524,
          9497,
          4009
        ],
        "name": "IERC721Enumerable",
        "nodeType": "ContractDefinition",
        "nodes": [
          {
            "body": null,
            "documentation": null,
            "id": 9507,
            "implemented": false,
            "isConstructor": false,
            "isDeclaredConst": true,
            "modifiers": [],
            "name": "totalSupply",
            "nodeType": "FunctionDefinition",
            "parameters": {
              "id": 9503,
              "nodeType": "ParameterList",
              "parameters": [],
              "src": "272:2:109"
            },
            "payable": false,
            "returnParameters": {
              "id": 9506,
              "nodeType": "ParameterList",
              "parameters": [
                {
                  "constant": false,
                  "id": 9505,
                  "name": "",
                  "nodeType": "VariableDeclaration",
                  "scope": 9507,
                  "src": "296:7:109",
                  "stateVariable": false,
                  "storageLocation": "default",
                  "typeDescriptions": {
                    "typeIdentifier": "t_uint256",
                    "typeString": "uint256"
                  },
                  "typeName": {
                    "id": 9504,
                    "name": "uint256",
                    "nodeType": "ElementaryTypeName",
                    "src": "296:7:109",
                    "typeDescriptions": {
                      "typeIdentifier": "t_uint256",
                      "typeString": "uint256"
                    }
                  },
                  "value": null,
                  "visibility": "internal"
                }
              ],
              "src": "295:9:109"
            },
            "scope": 9524,
            "src": "252:53:109",
            "stateMutability": "view",
            "superFunction": null,
            "visibility": "public"
          },
          {
            "body": null,
            "documentation": null,
            "id": 9516,
            "implemented": false,
            "isConstructor": false,
            "isDeclaredConst": true,
            "modifiers": [],
            "name": "tokenOfOwnerByIndex",
            "nodeType": "FunctionDefinition",
            "parameters": {
              "id": 9512,
              "nodeType": "ParameterList",
              "parameters": [
                {
                  "constant": false,
                  "id": 9509,
                  "name": "owner",
                  "nodeType": "VariableDeclaration",
                  "scope": 9516,
                  "src": "342:13:109",
                  "stateVariable": false,
                  "storageLocation": "default",
                  "typeDescriptions": {
                    "typeIdentifier": "t_address",
                    "typeString": "address"
                  },
                  "typeName": {
                    "id": 9508,
                    "name": "address",
                    "nodeType": "ElementaryTypeName",
                    "src": "342:7:109",
                    "typeDescriptions": {
                      "typeIdentifier": "t_address",
                      "typeString": "address"
                    }
                  },
                  "value": null,
                  "visibility": "internal"
                },
                {
                  "constant": false,
                  "id": 9511,
                  "name": "index",
                  "nodeType": "VariableDeclaration",
                  "scope": 9516,
                  "src": "361:13:109",
                  "stateVariable": false,
                  "storageLocation": "default",
                  "typeDescriptions": {
                    "typeIdentifier": "t_uint256",
                    "typeString": "uint256"
                  },
                  "typeName": {
                    "id": 9510,
                    "name": "uint256",
                    "nodeType": "ElementaryTypeName",
                    "src": "361:7:109",
                    "typeDescriptions": {
                      "typeIdentifier": "t_uint256",
                      "typeString": "uint256"
                    }
                  },
                  "value": null,
                  "visibility": "internal"
                }
              ],
              "src": "336:42:109"
            },
            "payable": false,
            "returnParameters": {
              "id": 9515,
              "nodeType": "ParameterList",
              "parameters": [
                {
                  "constant": false,
                  "id": 9514,
                  "name": "tokenId",
                  "nodeType": "VariableDeclaration",
                  "scope": 9516,
                  "src": "412:15:109",
                  "stateVariable": false,
                  "storageLocation": "default",
                  "typeDescriptions": {
                    "typeIdentifier": "t_uint256",
                    "typeString": "uint256"
                  },
                  "typeName": {
                    "id": 9513,
                    "name": "uint256",
                    "nodeType": "ElementaryTypeName",
                    "src": "412:7:109",
                    "typeDescriptions": {
                      "typeIdentifier": "t_uint256",
                      "typeString": "uint256"
                    }
                  },
                  "value": null,
                  "visibility": "internal"
                }
              ],
              "src": "411:17:109"
            },
            "scope": 9524,
            "src": "308:121:109",
            "stateMutability": "view",
            "superFunction": null,
            "visibility": "public"
          },
          {
            "body": null,
            "documentation": null,
            "id": 9523,
            "implemented": false,
            "isConstructor": false,
            "isDeclaredConst": true,
            "modifiers": [],
            "name": "tokenByIndex",
            "nodeType": "FunctionDefinition",
            "parameters": {
              "id": 9519,
              "nodeType": "ParameterList",
              "parameters": [
                {
                  "constant": false,
                  "id": 9518,
                  "name": "index",
                  "nodeType": "VariableDeclaration",
                  "scope": 9523,
                  "src": "455:13:109",
                  "stateVariable": false,
                  "storageLocation": "default",
                  "typeDescriptions": {
                    "typeIdentifier": "t_uint256",
                    "typeString": "uint256"
                  },
                  "typeName": {
                    "id": 9517,
                    "name": "uint256",
                    "nodeType": "ElementaryTypeName",
                    "src": "455:7:109",
                    "typeDescriptions": {
                      "typeIdentifier": "t_uint256",
                      "typeString": "uint256"
                    }
                  },
                  "value": null,
                  "visibility": "internal"
                }
              ],
              "src": "454:15:109"
            },
            "payable": false,
            "returnParameters": {
              "id": 9522,
              "nodeType": "ParameterList",
              "parameters": [
                {
                  "constant": false,
                  "id": 9521,
                  "name": "",
                  "nodeType": "VariableDeclaration",
                  "scope": 9523,
                  "src": "491:7:109",
                  "stateVariable": false,
                  "storageLocation": "default",
                  "typeDescriptions": {
                    "typeIdentifier": "t_uint256",
                    "typeString": "uint256"
                  },
                  "typeName": {
                    "id": 9520,
                    "name": "uint256",
                    "nodeType": "ElementaryTypeName",
                    "src": "491:7:109",
                    "typeDescriptions": {
                      "typeIdentifier": "t_uint256",
                      "typeString": "uint256"
                    }
                  },
                  "value": null,
                  "visibility": "internal"
                }
              ],
              "src": "490:9:109"
            },
            "scope": 9524,
            "src": "433:67:109",
            "stateMutability": "view",
            "superFunction": null,
            "visibility": "public"
          }
        ],
        "scope": 9525,
        "src": "210:292:109"
      }
    ],
    "src": "0:503:109"
  },
  "legacyAST": {
    "absolutePath": "/home/truffle-project/contracts/openzeppelin/token/ERC721/IERC721Enumerable.sol",
    "exportedSymbols": {
      "IERC721Enumerable": [
        9524
      ]
    },
    "id": 9525,
    "nodeType": "SourceUnit",
    "nodes": [
      {
        "id": 9499,
        "literals": [
          "solidity",
          "^",
          "0.4",
          ".24"
        ],
        "nodeType": "PragmaDirective",
        "src": "0:24:109"
      },
      {
        "absolutePath": "/home/truffle-project/contracts/openzeppelin/token/ERC721/IERC721.sol",
        "file": "./IERC721.sol",
        "id": 9500,
        "nodeType": "ImportDirective",
        "scope": 9525,
        "sourceUnit": 9498,
        "src": "26:23:109",
        "symbolAliases": [],
        "unitAlias": ""
      },
      {
        "baseContracts": [
          {
            "arguments": null,
            "baseName": {
              "contractScope": null,
              "id": 9501,
              "name": "IERC721",
              "nodeType": "UserDefinedTypeName",
              "referencedDeclaration": 9497,
              "src": "240:7:109",
              "typeDescriptions": {
                "typeIdentifier": "t_contract$_IERC721_$9497",
                "typeString": "contract IERC721"
              }
            },
            "id": 9502,
            "nodeType": "InheritanceSpecifier",
            "src": "240:7:109"
          }
        ],
        "contractDependencies": [
          4009,
          9497
        ],
        "contractKind": "contract",
        "documentation": "@title ERC-721 Non-Fungible Token Standard, optional enumeration extension\n@dev See https://github.com/ethereum/EIPs/blob/master/EIPS/eip-721.md",
        "fullyImplemented": false,
        "id": 9524,
        "linearizedBaseContracts": [
          9524,
          9497,
          4009
        ],
        "name": "IERC721Enumerable",
        "nodeType": "ContractDefinition",
        "nodes": [
          {
            "body": null,
            "documentation": null,
            "id": 9507,
            "implemented": false,
            "isConstructor": false,
            "isDeclaredConst": true,
            "modifiers": [],
            "name": "totalSupply",
            "nodeType": "FunctionDefinition",
            "parameters": {
              "id": 9503,
              "nodeType": "ParameterList",
              "parameters": [],
              "src": "272:2:109"
            },
            "payable": false,
            "returnParameters": {
              "id": 9506,
              "nodeType": "ParameterList",
              "parameters": [
                {
                  "constant": false,
                  "id": 9505,
                  "name": "",
                  "nodeType": "VariableDeclaration",
                  "scope": 9507,
                  "src": "296:7:109",
                  "stateVariable": false,
                  "storageLocation": "default",
                  "typeDescriptions": {
                    "typeIdentifier": "t_uint256",
                    "typeString": "uint256"
                  },
                  "typeName": {
                    "id": 9504,
                    "name": "uint256",
                    "nodeType": "ElementaryTypeName",
                    "src": "296:7:109",
                    "typeDescriptions": {
                      "typeIdentifier": "t_uint256",
                      "typeString": "uint256"
                    }
                  },
                  "value": null,
                  "visibility": "internal"
                }
              ],
              "src": "295:9:109"
            },
            "scope": 9524,
            "src": "252:53:109",
            "stateMutability": "view",
            "superFunction": null,
            "visibility": "public"
          },
          {
            "body": null,
            "documentation": null,
            "id": 9516,
            "implemented": false,
            "isConstructor": false,
            "isDeclaredConst": true,
            "modifiers": [],
            "name": "tokenOfOwnerByIndex",
            "nodeType": "FunctionDefinition",
            "parameters": {
              "id": 9512,
              "nodeType": "ParameterList",
              "parameters": [
                {
                  "constant": false,
                  "id": 9509,
                  "name": "owner",
                  "nodeType": "VariableDeclaration",
                  "scope": 9516,
                  "src": "342:13:109",
                  "stateVariable": false,
                  "storageLocation": "default",
                  "typeDescriptions": {
                    "typeIdentifier": "t_address",
                    "typeString": "address"
                  },
                  "typeName": {
                    "id": 9508,
                    "name": "address",
                    "nodeType": "ElementaryTypeName",
                    "src": "342:7:109",
                    "typeDescriptions": {
                      "typeIdentifier": "t_address",
                      "typeString": "address"
                    }
                  },
                  "value": null,
                  "visibility": "internal"
                },
                {
                  "constant": false,
                  "id": 9511,
                  "name": "index",
                  "nodeType": "VariableDeclaration",
                  "scope": 9516,
                  "src": "361:13:109",
                  "stateVariable": false,
                  "storageLocation": "default",
                  "typeDescriptions": {
                    "typeIdentifier": "t_uint256",
                    "typeString": "uint256"
                  },
                  "typeName": {
                    "id": 9510,
                    "name": "uint256",
                    "nodeType": "ElementaryTypeName",
                    "src": "361:7:109",
                    "typeDescriptions": {
                      "typeIdentifier": "t_uint256",
                      "typeString": "uint256"
                    }
                  },
                  "value": null,
                  "visibility": "internal"
                }
              ],
              "src": "336:42:109"
            },
            "payable": false,
            "returnParameters": {
              "id": 9515,
              "nodeType": "ParameterList",
              "parameters": [
                {
                  "constant": false,
                  "id": 9514,
                  "name": "tokenId",
                  "nodeType": "VariableDeclaration",
                  "scope": 9516,
                  "src": "412:15:109",
                  "stateVariable": false,
                  "storageLocation": "default",
                  "typeDescriptions": {
                    "typeIdentifier": "t_uint256",
                    "typeString": "uint256"
                  },
                  "typeName": {
                    "id": 9513,
                    "name": "uint256",
                    "nodeType": "ElementaryTypeName",
                    "src": "412:7:109",
                    "typeDescriptions": {
                      "typeIdentifier": "t_uint256",
                      "typeString": "uint256"
                    }
                  },
                  "value": null,
                  "visibility": "internal"
                }
              ],
              "src": "411:17:109"
            },
            "scope": 9524,
            "src": "308:121:109",
            "stateMutability": "view",
            "superFunction": null,
            "visibility": "public"
          },
          {
            "body": null,
            "documentation": null,
            "id": 9523,
            "implemented": false,
            "isConstructor": false,
            "isDeclaredConst": true,
            "modifiers": [],
            "name": "tokenByIndex",
            "nodeType": "FunctionDefinition",
            "parameters": {
              "id": 9519,
              "nodeType": "ParameterList",
              "parameters": [
                {
                  "constant": false,
                  "id": 9518,
                  "name": "index",
                  "nodeType": "VariableDeclaration",
                  "scope": 9523,
                  "src": "455:13:109",
                  "stateVariable": false,
                  "storageLocation": "default",
                  "typeDescriptions": {
                    "typeIdentifier": "t_uint256",
                    "typeString": "uint256"
                  },
                  "typeName": {
                    "id": 9517,
                    "name": "uint256",
                    "nodeType": "ElementaryTypeName",
                    "src": "455:7:109",
                    "typeDescriptions": {
                      "typeIdentifier": "t_uint256",
                      "typeString": "uint256"
                    }
                  },
                  "value": null,
                  "visibility": "internal"
                }
              ],
              "src": "454:15:109"
            },
            "payable": false,
            "returnParameters": {
              "id": 9522,
              "nodeType": "ParameterList",
              "parameters": [
                {
                  "constant": false,
                  "id": 9521,
                  "name": "",
                  "nodeType": "VariableDeclaration",
                  "scope": 9523,
                  "src": "491:7:109",
                  "stateVariable": false,
                  "storageLocation": "default",
                  "typeDescriptions": {
                    "typeIdentifier": "t_uint256",
                    "typeString": "uint256"
                  },
                  "typeName": {
                    "id": 9520,
                    "name": "uint256",
                    "nodeType": "ElementaryTypeName",
                    "src": "491:7:109",
                    "typeDescriptions": {
                      "typeIdentifier": "t_uint256",
                      "typeString": "uint256"
                    }
                  },
                  "value": null,
                  "visibility": "internal"
                }
              ],
              "src": "490:9:109"
            },
            "scope": 9524,
            "src": "433:67:109",
            "stateMutability": "view",
            "superFunction": null,
            "visibility": "public"
          }
        ],
        "scope": 9525,
        "src": "210:292:109"
      }
    ],
    "src": "0:503:109"
  },
  "compiler": {
    "name": "solc",
    "version": "0.4.24+commit.e67f0147.Emscripten.clang"
  },
  "networks": {},
  "schemaVersion": "3.2.3",
  "updatedAt": "2020-09-28T07:24:07.979Z",
  "devdoc": {
    "methods": {
      "supportsInterface(bytes4)": {
        "details": "Interface identification is specified in ERC-165. This function uses less than 30,000 gas.",
        "params": {
          "interfaceId": "The interface identifier, as specified in ERC-165"
        }
      }
    },
    "title": "ERC-721 Non-Fungible Token Standard, optional enumeration extension"
  },
  "userdoc": {
    "methods": {
      "supportsInterface(bytes4)": {
        "notice": "Query if a contract implements an interface"
      }
    }
  }
}