{
  "contractName": "ReentrancyGuard",
  "abi": [
    {
      "inputs": [],
      "payable": false,
      "stateMutability": "nonpayable",
      "type": "constructor"
    }
  ],
  "metadata": "",
  "bytecode": "0x",
  "deployedBytecode": "0x",
  "sourceMap": "",
  "deployedSourceMap": "",
  "source": "pragma solidity ^0.4.24;\n\n/**\n * @title Helps contracts guard against reentrancy attacks.\n * @author Remco Bloemen <remco@2π.com>, Eenae <alexey@mixbytes.io>\n * @dev If you mark a function `nonReentrant`, you should also\n * mark it `external`.\n */\ncontract ReentrancyGuard {\n\n  /// @dev counter to allow mutex lock with only one SSTORE operation\n  uint256 private _guardCounter;\n\n  constructor() internal {\n    // The counter starts at one to prevent changing it from zero to a non-zero\n    // value, which is a more expensive operation.\n    _guardCounter = 1;\n  }\n\n  /**\n   * @dev Prevents a contract from calling itself, directly or indirectly.\n   * Calling a `nonReentrant` function from another `nonReentrant`\n   * function is not supported. It is possible to prevent this from happening\n   * by making the `nonReentrant` function external, and make it call a\n   * `private` function that does the actual work.\n   */\n  modifier nonReentrant() {\n    _guardCounter += 1;\n    uint256 localCounter = _guardCounter;\n    _;\n    require(localCounter == _guardCounter);\n  }\n\n}\n",
  "sourcePath": "/home/truffle-project/contracts/openzeppelin/utils/ReentrancyGuard.sol",
  "ast": {
    "absolutePath": "/home/truffle-project/contracts/openzeppelin/utils/ReentrancyGuard.sol",
    "exportedSymbols": {
      "ReentrancyGuard": [
        9708
      ]
    },
    "id": 9709,
    "nodeType": "SourceUnit",
    "nodes": [
      {
        "id": 9679,
        "literals": [
          "solidity",
          "^",
          "0.4",
          ".24"
        ],
        "nodeType": "PragmaDirective",
        "src": "0:24:115"
      },
      {
        "baseContracts": [],
        "contractDependencies": [],
        "contractKind": "contract",
        "documentation": "@title Helps contracts guard against reentrancy attacks.\n@author Remco Bloemen <remco@2π.com>, Eenae <alexey@mixbytes.io>\n@dev If you mark a function `nonReentrant`, you should also\nmark it `external`.",
        "fullyImplemented": true,
        "id": 9708,
        "linearizedBaseContracts": [
          9708
        ],
        "name": "ReentrancyGuard",
        "nodeType": "ContractDefinition",
        "nodes": [
          {
            "constant": false,
            "id": 9681,
            "name": "_guardCounter",
            "nodeType": "VariableDeclaration",
            "scope": 9708,
            "src": "349:29:115",
            "stateVariable": true,
            "storageLocation": "default",
            "typeDescriptions": {
              "typeIdentifier": "t_uint256",
              "typeString": "uint256"
            },
            "typeName": {
              "id": 9680,
              "name": "uint256",
              "nodeType": "ElementaryTypeName",
              "src": "349:7:115",
              "typeDescriptions": {
                "typeIdentifier": "t_uint256",
                "typeString": "uint256"
              }
            },
            "value": null,
            "visibility": "private"
          },
          {
            "body": {
              "id": 9688,
              "nodeType": "Block",
              "src": "406:159:115",
              "statements": [
                {
                  "expression": {
                    "argumentTypes": null,
                    "id": 9686,
                    "isConstant": false,
                    "isLValue": false,
                    "isPure": false,
                    "lValueRequested": false,
                    "leftHandSide": {
                      "argumentTypes": null,
                      "id": 9684,
                      "name": "_guardCounter",
                      "nodeType": "Identifier",
                      "overloadedDeclarations": [],
                      "referencedDeclaration": 9681,
                      "src": "543:13:115",
                      "typeDescriptions": {
                        "typeIdentifier": "t_uint256",
                        "typeString": "uint256"
                      }
                    },
                    "nodeType": "Assignment",
                    "operator": "=",
                    "rightHandSide": {
                      "argumentTypes": null,
                      "hexValue": "31",
                      "id": 9685,
                      "isConstant": false,
                      "isLValue": false,
                      "isPure": true,
                      "kind": "number",
                      "lValueRequested": false,
                      "nodeType": "Literal",
                      "src": "559:1:115",
                      "subdenomination": null,
                      "typeDescriptions": {
                        "typeIdentifier": "t_rational_1_by_1",
                        "typeString": "int_const 1"
                      },
                      "value": "1"
                    },
                    "src": "543:17:115",
                    "typeDescriptions": {
                      "typeIdentifier": "t_uint256",
                      "typeString": "uint256"
                    }
                  },
                  "id": 9687,
                  "nodeType": "ExpressionStatement",
                  "src": "543:17:115"
                }
              ]
            },
            "documentation": null,
            "id": 9689,
            "implemented": true,
            "isConstructor": true,
            "isDeclaredConst": false,
            "modifiers": [],
            "name": "",
            "nodeType": "FunctionDefinition",
            "parameters": {
              "id": 9682,
              "nodeType": "ParameterList",
              "parameters": [],
              "src": "394:2:115"
            },
            "payable": false,
            "returnParameters": {
              "id": 9683,
              "nodeType": "ParameterList",
              "parameters": [],
              "src": "406:0:115"
            },
            "scope": 9708,
            "src": "383:182:115",
            "stateMutability": "nonpayable",
            "superFunction": null,
            "visibility": "internal"
          },
          {
            "body": {
              "id": 9706,
              "nodeType": "Block",
              "src": "948:122:115",
              "statements": [
                {
                  "expression": {
                    "argumentTypes": null,
                    "id": 9693,
                    "isConstant": false,
                    "isLValue": false,
                    "isPure": false,
                    "lValueRequested": false,
                    "leftHandSide": {
                      "argumentTypes": null,
                      "id": 9691,
                      "name": "_guardCounter",
                      "nodeType": "Identifier",
                      "overloadedDeclarations": [],
                      "referencedDeclaration": 9681,
                      "src": "954:13:115",
                      "typeDescriptions": {
                        "typeIdentifier": "t_uint256",
                        "typeString": "uint256"
                      }
                    },
                    "nodeType": "Assignment",
                    "operator": "+=",
                    "rightHandSide": {
                      "argumentTypes": null,
                      "hexValue": "31",
                      "id": 9692,
                      "isConstant": false,
                      "isLValue": false,
                      "isPure": true,
                      "kind": "number",
                      "lValueRequested": false,
                      "nodeType": "Literal",
                      "src": "971:1:115",
                      "subdenomination": null,
                      "typeDescriptions": {
                        "typeIdentifier": "t_rational_1_by_1",
                        "typeString": "int_const 1"
                      },
                      "value": "1"
                    },
                    "src": "954:18:115",
                    "typeDescriptions": {
                      "typeIdentifier": "t_uint256",
                      "typeString": "uint256"
                    }
                  },
                  "id": 9694,
                  "nodeType": "ExpressionStatement",
                  "src": "954:18:115"
                },
                {
                  "assignments": [
                    9696
                  ],
                  "declarations": [
                    {
                      "constant": false,
                      "id": 9696,
                      "name": "localCounter",
                      "nodeType": "VariableDeclaration",
                      "scope": 9707,
                      "src": "978:20:115",
                      "stateVariable": false,
                      "storageLocation": "default",
                      "typeDescriptions": {
                        "typeIdentifier": "t_uint256",
                        "typeString": "uint256"
                      },
                      "typeName": {
                        "id": 9695,
                        "name": "uint256",
                        "nodeType": "ElementaryTypeName",
                        "src": "978:7:115",
                        "typeDescriptions": {
                          "typeIdentifier": "t_uint256",
                          "typeString": "uint256"
                        }
                      },
                      "value": null,
                      "visibility": "internal"
                    }
                  ],
                  "id": 9698,
                  "initialValue": {
                    "argumentTypes": null,
                    "id": 9697,
                    "name": "_guardCounter",
                    "nodeType": "Identifier",
                    "overloadedDeclarations": [],
                    "referencedDeclaration": 9681,
                    "src": "1001:13:115",
                    "typeDescriptions": {
                      "typeIdentifier": "t_uint256",
                      "typeString": "uint256"
                    }
                  },
                  "nodeType": "VariableDeclarationStatement",
                  "src": "978:36:115"
                },
                {
                  "id": 9699,
                  "nodeType": "PlaceholderStatement",
                  "src": "1020:1:115"
                },
                {
                  "expression": {
                    "argumentTypes": null,
                    "arguments": [
                      {
                        "argumentTypes": null,
                        "commonType": {
                          "typeIdentifier": "t_uint256",
                          "typeString": "uint256"
                        },
                        "id": 9703,
                        "isConstant": false,
                        "isLValue": false,
                        "isPure": false,
                        "lValueRequested": false,
                        "leftExpression": {
                          "argumentTypes": null,
                          "id": 9701,
                          "name": "localCounter",
                          "nodeType": "Identifier",
                          "overloadedDeclarations": [],
                          "referencedDeclaration": 9696,
                          "src": "1035:12:115",
                          "typeDescriptions": {
                            "typeIdentifier": "t_uint256",
                            "typeString": "uint256"
                          }
                        },
                        "nodeType": "BinaryOperation",
                        "operator": "==",
                        "rightExpression": {
                          "argumentTypes": null,
                          "id": 9702,
                          "name": "_guardCounter",
                          "nodeType": "Identifier",
                          "overloadedDeclarations": [],
                          "referencedDeclaration": 9681,
                          "src": "1051:13:115",
                          "typeDescriptions": {
                            "typeIdentifier": "t_uint256",
                            "typeString": "uint256"
                          }
                        },
                        "src": "1035:29:115",
                        "typeDescriptions": {
                          "typeIdentifier": "t_bool",
                          "typeString": "bool"
                        }
                      }
                    ],
                    "expression": {
                      "argumentTypes": [
                        {
                          "typeIdentifier": "t_bool",
                          "typeString": "bool"
                        }
                      ],
                      "id": 9700,
                      "name": "require",
                      "nodeType": "Identifier",
                      "overloadedDeclarations": [
                        9726,
                        9727
                      ],
                      "referencedDeclaration": 9726,
                      "src": "1027:7:115",
                      "typeDescriptions": {
                        "typeIdentifier": "t_function_require_pure$_t_bool_$returns$__$",
                        "typeString": "function (bool) pure"
                      }
                    },
                    "id": 9704,
                    "isConstant": false,
                    "isLValue": false,
                    "isPure": false,
                    "kind": "functionCall",
                    "lValueRequested": false,
                    "names": [],
                    "nodeType": "FunctionCall",
                    "src": "1027:38:115",
                    "typeDescriptions": {
                      "typeIdentifier": "t_tuple$__$",
                      "typeString": "tuple()"
                    }
                  },
                  "id": 9705,
                  "nodeType": "ExpressionStatement",
                  "src": "1027:38:115"
                }
              ]
            },
            "documentation": "@dev Prevents a contract from calling itself, directly or indirectly.\nCalling a `nonReentrant` function from another `nonReentrant`\nfunction is not supported. It is possible to prevent this from happening\nby making the `nonReentrant` function external, and make it call a\n`private` function that does the actual work.",
            "id": 9707,
            "name": "nonReentrant",
            "nodeType": "ModifierDefinition",
            "parameters": {
              "id": 9690,
              "nodeType": "ParameterList",
              "parameters": [],
              "src": "945:2:115"
            },
            "src": "924:146:115",
            "visibility": "internal"
          }
        ],
        "scope": 9709,
        "src": "249:824:115"
      }
    ],
    "src": "0:1074:115"
  },
  "legacyAST": {
    "absolutePath": "/home/truffle-project/contracts/openzeppelin/utils/ReentrancyGuard.sol",
    "exportedSymbols": {
      "ReentrancyGuard": [
        9708
      ]
    },
    "id": 9709,
    "nodeType": "SourceUnit",
    "nodes": [
      {
        "id": 9679,
        "literals": [
          "solidity",
          "^",
          "0.4",
          ".24"
        ],
        "nodeType": "PragmaDirective",
        "src": "0:24:115"
      },
      {
        "baseContracts": [],
        "contractDependencies": [],
        "contractKind": "contract",
        "documentation": "@title Helps contracts guard against reentrancy attacks.\n@author Remco Bloemen <remco@2π.com>, Eenae <alexey@mixbytes.io>\n@dev If you mark a function `nonReentrant`, you should also\nmark it `external`.",
        "fullyImplemented": true,
        "id": 9708,
        "linearizedBaseContracts": [
          9708
        ],
        "name": "ReentrancyGuard",
        "nodeType": "ContractDefinition",
        "nodes": [
          {
            "constant": false,
            "id": 9681,
            "name": "_guardCounter",
            "nodeType": "VariableDeclaration",
            "scope": 9708,
            "src": "349:29:115",
            "stateVariable": true,
            "storageLocation": "default",
            "typeDescriptions": {
              "typeIdentifier": "t_uint256",
              "typeString": "uint256"
            },
            "typeName": {
              "id": 9680,
              "name": "uint256",
              "nodeType": "ElementaryTypeName",
              "src": "349:7:115",
              "typeDescriptions": {
                "typeIdentifier": "t_uint256",
                "typeString": "uint256"
              }
            },
            "value": null,
            "visibility": "private"
          },
          {
            "body": {
              "id": 9688,
              "nodeType": "Block",
              "src": "406:159:115",
              "statements": [
                {
                  "expression": {
                    "argumentTypes": null,
                    "id": 9686,
                    "isConstant": false,
                    "isLValue": false,
                    "isPure": false,
                    "lValueRequested": false,
                    "leftHandSide": {
                      "argumentTypes": null,
                      "id": 9684,
                      "name": "_guardCounter",
                      "nodeType": "Identifier",
                      "overloadedDeclarations": [],
                      "referencedDeclaration": 9681,
                      "src": "543:13:115",
                      "typeDescriptions": {
                        "typeIdentifier": "t_uint256",
                        "typeString": "uint256"
                      }
                    },
                    "nodeType": "Assignment",
                    "operator": "=",
                    "rightHandSide": {
                      "argumentTypes": null,
                      "hexValue": "31",
                      "id": 9685,
                      "isConstant": false,
                      "isLValue": false,
                      "isPure": true,
                      "kind": "number",
                      "lValueRequested": false,
                      "nodeType": "Literal",
                      "src": "559:1:115",
                      "subdenomination": null,
                      "typeDescriptions": {
                        "typeIdentifier": "t_rational_1_by_1",
                        "typeString": "int_const 1"
                      },
                      "value": "1"
                    },
                    "src": "543:17:115",
                    "typeDescriptions": {
                      "typeIdentifier": "t_uint256",
                      "typeString": "uint256"
                    }
                  },
                  "id": 9687,
                  "nodeType": "ExpressionStatement",
                  "src": "543:17:115"
                }
              ]
            },
            "documentation": null,
            "id": 9689,
            "implemented": true,
            "isConstructor": true,
            "isDeclaredConst": false,
            "modifiers": [],
            "name": "",
            "nodeType": "FunctionDefinition",
            "parameters": {
              "id": 9682,
              "nodeType": "ParameterList",
              "parameters": [],
              "src": "394:2:115"
            },
            "payable": false,
            "returnParameters": {
              "id": 9683,
              "nodeType": "ParameterList",
              "parameters": [],
              "src": "406:0:115"
            },
            "scope": 9708,
            "src": "383:182:115",
            "stateMutability": "nonpayable",
            "superFunction": null,
            "visibility": "internal"
          },
          {
            "body": {
              "id": 9706,
              "nodeType": "Block",
              "src": "948:122:115",
              "statements": [
                {
                  "expression": {
                    "argumentTypes": null,
                    "id": 9693,
                    "isConstant": false,
                    "isLValue": false,
                    "isPure": false,
                    "lValueRequested": false,
                    "leftHandSide": {
                      "argumentTypes": null,
                      "id": 9691,
                      "name": "_guardCounter",
                      "nodeType": "Identifier",
                      "overloadedDeclarations": [],
                      "referencedDeclaration": 9681,
                      "src": "954:13:115",
                      "typeDescriptions": {
                        "typeIdentifier": "t_uint256",
                        "typeString": "uint256"
                      }
                    },
                    "nodeType": "Assignment",
                    "operator": "+=",
                    "rightHandSide": {
                      "argumentTypes": null,
                      "hexValue": "31",
                      "id": 9692,
                      "isConstant": false,
                      "isLValue": false,
                      "isPure": true,
                      "kind": "number",
                      "lValueRequested": false,
                      "nodeType": "Literal",
                      "src": "971:1:115",
                      "subdenomination": null,
                      "typeDescriptions": {
                        "typeIdentifier": "t_rational_1_by_1",
                        "typeString": "int_const 1"
                      },
                      "value": "1"
                    },
                    "src": "954:18:115",
                    "typeDescriptions": {
                      "typeIdentifier": "t_uint256",
                      "typeString": "uint256"
                    }
                  },
                  "id": 9694,
                  "nodeType": "ExpressionStatement",
                  "src": "954:18:115"
                },
                {
                  "assignments": [
                    9696
                  ],
                  "declarations": [
                    {
                      "constant": false,
                      "id": 9696,
                      "name": "localCounter",
                      "nodeType": "VariableDeclaration",
                      "scope": 9707,
                      "src": "978:20:115",
                      "stateVariable": false,
                      "storageLocation": "default",
                      "typeDescriptions": {
                        "typeIdentifier": "t_uint256",
                        "typeString": "uint256"
                      },
                      "typeName": {
                        "id": 9695,
                        "name": "uint256",
                        "nodeType": "ElementaryTypeName",
                        "src": "978:7:115",
                        "typeDescriptions": {
                          "typeIdentifier": "t_uint256",
                          "typeString": "uint256"
                        }
                      },
                      "value": null,
                      "visibility": "internal"
                    }
                  ],
                  "id": 9698,
                  "initialValue": {
                    "argumentTypes": null,
                    "id": 9697,
                    "name": "_guardCounter",
                    "nodeType": "Identifier",
                    "overloadedDeclarations": [],
                    "referencedDeclaration": 9681,
                    "src": "1001:13:115",
                    "typeDescriptions": {
                      "typeIdentifier": "t_uint256",
                      "typeString": "uint256"
                    }
                  },
                  "nodeType": "VariableDeclarationStatement",
                  "src": "978:36:115"
                },
                {
                  "id": 9699,
                  "nodeType": "PlaceholderStatement",
                  "src": "1020:1:115"
                },
                {
                  "expression": {
                    "argumentTypes": null,
                    "arguments": [
                      {
                        "argumentTypes": null,
                        "commonType": {
                          "typeIdentifier": "t_uint256",
                          "typeString": "uint256"
                        },
                        "id": 9703,
                        "isConstant": false,
                        "isLValue": false,
                        "isPure": false,
                        "lValueRequested": false,
                        "leftExpression": {
                          "argumentTypes": null,
                          "id": 9701,
                          "name": "localCounter",
                          "nodeType": "Identifier",
                          "overloadedDeclarations": [],
                          "referencedDeclaration": 9696,
                          "src": "1035:12:115",
                          "typeDescriptions": {
                            "typeIdentifier": "t_uint256",
                            "typeString": "uint256"
                          }
                        },
                        "nodeType": "BinaryOperation",
                        "operator": "==",
                        "rightExpression": {
                          "argumentTypes": null,
                          "id": 9702,
                          "name": "_guardCounter",
                          "nodeType": "Identifier",
                          "overloadedDeclarations": [],
                          "referencedDeclaration": 9681,
                          "src": "1051:13:115",
                          "typeDescriptions": {
                            "typeIdentifier": "t_uint256",
                            "typeString": "uint256"
                          }
                        },
                        "src": "1035:29:115",
                        "typeDescriptions": {
                          "typeIdentifier": "t_bool",
                          "typeString": "bool"
                        }
                      }
                    ],
                    "expression": {
                      "argumentTypes": [
                        {
                          "typeIdentifier": "t_bool",
                          "typeString": "bool"
                        }
                      ],
                      "id": 9700,
                      "name": "require",
                      "nodeType": "Identifier",
                      "overloadedDeclarations": [
                        9726,
                        9727
                      ],
                      "referencedDeclaration": 9726,
                      "src": "1027:7:115",
                      "typeDescriptions": {
                        "typeIdentifier": "t_function_require_pure$_t_bool_$returns$__$",
                        "typeString": "function (bool) pure"
                      }
                    },
                    "id": 9704,
                    "isConstant": false,
                    "isLValue": false,
                    "isPure": false,
                    "kind": "functionCall",
                    "lValueRequested": false,
                    "names": [],
                    "nodeType": "FunctionCall",
                    "src": "1027:38:115",
                    "typeDescriptions": {
                      "typeIdentifier": "t_tuple$__$",
                      "typeString": "tuple()"
                    }
                  },
                  "id": 9705,
                  "nodeType": "ExpressionStatement",
                  "src": "1027:38:115"
                }
              ]
            },
            "documentation": "@dev Prevents a contract from calling itself, directly or indirectly.\nCalling a `nonReentrant` function from another `nonReentrant`\nfunction is not supported. It is possible to prevent this from happening\nby making the `nonReentrant` function external, and make it call a\n`private` function that does the actual work.",
            "id": 9707,
            "name": "nonReentrant",
            "nodeType": "ModifierDefinition",
            "parameters": {
              "id": 9690,
              "nodeType": "ParameterList",
              "parameters": [],
              "src": "945:2:115"
            },
            "src": "924:146:115",
            "visibility": "internal"
          }
        ],
        "scope": 9709,
        "src": "249:824:115"
      }
    ],
    "src": "0:1074:115"
  },
  "compiler": {
    "name": "solc",
    "version": "0.4.24+commit.e67f0147.Emscripten.clang"
  },
  "networks": {},
  "schemaVersion": "3.2.3",
  "updatedAt": "2020-09-28T07:24:07.981Z",
  "devdoc": {
    "author": "Remco Bloemen <remco@2π.com>, Eenae <alexey@mixbytes.io>",
    "methods": {},
    "title": "Helps contracts guard against reentrancy attacks."
  },
  "userdoc": {
    "methods": {}
  }
}