{
  "contractName": "SignerRole",
  "abi": [
    {
      "inputs": [],
      "payable": false,
      "stateMutability": "nonpayable",
      "type": "constructor"
    },
    {
      "anonymous": false,
      "inputs": [
        {
          "indexed": true,
          "name": "account",
          "type": "address"
        }
      ],
      "name": "SignerAdded",
      "type": "event"
    },
    {
      "anonymous": false,
      "inputs": [
        {
          "indexed": true,
          "name": "account",
          "type": "address"
        }
      ],
      "name": "SignerRemoved",
      "type": "event"
    },
    {
      "constant": true,
      "inputs": [
        {
          "name": "account",
          "type": "address"
        }
      ],
      "name": "isSigner",
      "outputs": [
        {
          "name": "",
          "type": "bool"
        }
      ],
      "payable": false,
      "stateMutability": "view",
      "type": "function"
    },
    {
      "constant": false,
      "inputs": [
        {
          "name": "account",
          "type": "address"
        }
      ],
      "name": "addSigner",
      "outputs": [],
      "payable": false,
      "stateMutability": "nonpayable",
      "type": "function"
    },
    {
      "constant": false,
      "inputs": [],
      "name": "renounceSigner",
      "outputs": [],
      "payable": false,
      "stateMutability": "nonpayable",
      "type": "function"
    }
  ],
  "metadata": "",
  "bytecode": "0x",
  "deployedBytecode": "0x",
  "sourceMap": "",
  "deployedSourceMap": "",
  "source": "pragma solidity ^0.4.24;\n\nimport \"../Roles.sol\";\n\ncontract SignerRole {\n  using Roles for Roles.Role;\n\n  event SignerAdded(address indexed account);\n  event SignerRemoved(address indexed account);\n\n  Roles.Role private signers;\n\n  constructor() internal {\n    _addSigner(msg.sender);\n  }\n\n  modifier onlySigner() {\n    require(isSigner(msg.sender));\n    _;\n  }\n\n  function isSigner(address account) public view returns (bool) {\n    return signers.has(account);\n  }\n\n  function addSigner(address account) public onlySigner {\n    _addSigner(account);\n  }\n\n  function renounceSigner() public {\n    _removeSigner(msg.sender);\n  }\n\n  function _addSigner(address account) internal {\n    signers.add(account);\n    emit SignerAdded(account);\n  }\n\n  function _removeSigner(address account) internal {\n    signers.remove(account);\n    emit SignerRemoved(account);\n  }\n}\n",
  "sourcePath": "/home/truffle-project/contracts/openzeppelin/access/roles/SignerRole.sol",
  "ast": {
    "absolutePath": "/home/truffle-project/contracts/openzeppelin/access/roles/SignerRole.sol",
    "exportedSymbols": {
      "SignerRole": [
        1700
      ]
    },
    "id": 1701,
    "nodeType": "SourceUnit",
    "nodes": [
      {
        "id": 1599,
        "literals": [
          "solidity",
          "^",
          "0.4",
          ".24"
        ],
        "nodeType": "PragmaDirective",
        "src": "0:24:10"
      },
      {
        "absolutePath": "/home/truffle-project/contracts/openzeppelin/access/Roles.sol",
        "file": "../Roles.sol",
        "id": 1600,
        "nodeType": "ImportDirective",
        "scope": 1701,
        "sourceUnit": 1289,
        "src": "26:22:10",
        "symbolAliases": [],
        "unitAlias": ""
      },
      {
        "baseContracts": [],
        "contractDependencies": [],
        "contractKind": "contract",
        "documentation": null,
        "fullyImplemented": true,
        "id": 1700,
        "linearizedBaseContracts": [
          1700
        ],
        "name": "SignerRole",
        "nodeType": "ContractDefinition",
        "nodes": [
          {
            "id": 1603,
            "libraryName": {
              "contractScope": null,
              "id": 1601,
              "name": "Roles",
              "nodeType": "UserDefinedTypeName",
              "referencedDeclaration": 1288,
              "src": "80:5:10",
              "typeDescriptions": {
                "typeIdentifier": "t_contract$_Roles_$1288",
                "typeString": "library Roles"
              }
            },
            "nodeType": "UsingForDirective",
            "src": "74:27:10",
            "typeName": {
              "contractScope": null,
              "id": 1602,
              "name": "Roles.Role",
              "nodeType": "UserDefinedTypeName",
              "referencedDeclaration": 1201,
              "src": "90:10:10",
              "typeDescriptions": {
                "typeIdentifier": "t_struct$_Role_$1201_storage_ptr",
                "typeString": "struct Roles.Role"
              }
            }
          },
          {
            "anonymous": false,
            "documentation": null,
            "id": 1607,
            "name": "SignerAdded",
            "nodeType": "EventDefinition",
            "parameters": {
              "id": 1606,
              "nodeType": "ParameterList",
              "parameters": [
                {
                  "constant": false,
                  "id": 1605,
                  "indexed": true,
                  "name": "account",
                  "nodeType": "VariableDeclaration",
                  "scope": 1607,
                  "src": "123:23:10",
                  "stateVariable": false,
                  "storageLocation": "default",
                  "typeDescriptions": {
                    "typeIdentifier": "t_address",
                    "typeString": "address"
                  },
                  "typeName": {
                    "id": 1604,
                    "name": "address",
                    "nodeType": "ElementaryTypeName",
                    "src": "123:7:10",
                    "typeDescriptions": {
                      "typeIdentifier": "t_address",
                      "typeString": "address"
                    }
                  },
                  "value": null,
                  "visibility": "internal"
                }
              ],
              "src": "122:25:10"
            },
            "src": "105:43:10"
          },
          {
            "anonymous": false,
            "documentation": null,
            "id": 1611,
            "name": "SignerRemoved",
            "nodeType": "EventDefinition",
            "parameters": {
              "id": 1610,
              "nodeType": "ParameterList",
              "parameters": [
                {
                  "constant": false,
                  "id": 1609,
                  "indexed": true,
                  "name": "account",
                  "nodeType": "VariableDeclaration",
                  "scope": 1611,
                  "src": "171:23:10",
                  "stateVariable": false,
                  "storageLocation": "default",
                  "typeDescriptions": {
                    "typeIdentifier": "t_address",
                    "typeString": "address"
                  },
                  "typeName": {
                    "id": 1608,
                    "name": "address",
                    "nodeType": "ElementaryTypeName",
                    "src": "171:7:10",
                    "typeDescriptions": {
                      "typeIdentifier": "t_address",
                      "typeString": "address"
                    }
                  },
                  "value": null,
                  "visibility": "internal"
                }
              ],
              "src": "170:25:10"
            },
            "src": "151:45:10"
          },
          {
            "constant": false,
            "id": 1613,
            "name": "signers",
            "nodeType": "VariableDeclaration",
            "scope": 1700,
            "src": "200:26:10",
            "stateVariable": true,
            "storageLocation": "default",
            "typeDescriptions": {
              "typeIdentifier": "t_struct$_Role_$1201_storage",
              "typeString": "struct Roles.Role"
            },
            "typeName": {
              "contractScope": null,
              "id": 1612,
              "name": "Roles.Role",
              "nodeType": "UserDefinedTypeName",
              "referencedDeclaration": 1201,
              "src": "200:10:10",
              "typeDescriptions": {
                "typeIdentifier": "t_struct$_Role_$1201_storage_ptr",
                "typeString": "struct Roles.Role"
              }
            },
            "value": null,
            "visibility": "private"
          },
          {
            "body": {
              "id": 1621,
              "nodeType": "Block",
              "src": "254:33:10",
              "statements": [
                {
                  "expression": {
                    "argumentTypes": null,
                    "arguments": [
                      {
                        "argumentTypes": null,
                        "expression": {
                          "argumentTypes": null,
                          "id": 1617,
                          "name": "msg",
                          "nodeType": "Identifier",
                          "overloadedDeclarations": [],
                          "referencedDeclaration": 9723,
                          "src": "271:3:10",
                          "typeDescriptions": {
                            "typeIdentifier": "t_magic_message",
                            "typeString": "msg"
                          }
                        },
                        "id": 1618,
                        "isConstant": false,
                        "isLValue": false,
                        "isPure": false,
                        "lValueRequested": false,
                        "memberName": "sender",
                        "nodeType": "MemberAccess",
                        "referencedDeclaration": null,
                        "src": "271:10:10",
                        "typeDescriptions": {
                          "typeIdentifier": "t_address",
                          "typeString": "address"
                        }
                      }
                    ],
                    "expression": {
                      "argumentTypes": [
                        {
                          "typeIdentifier": "t_address",
                          "typeString": "address"
                        }
                      ],
                      "id": 1616,
                      "name": "_addSigner",
                      "nodeType": "Identifier",
                      "overloadedDeclarations": [],
                      "referencedDeclaration": 1683,
                      "src": "260:10:10",
                      "typeDescriptions": {
                        "typeIdentifier": "t_function_internal_nonpayable$_t_address_$returns$__$",
                        "typeString": "function (address)"
                      }
                    },
                    "id": 1619,
                    "isConstant": false,
                    "isLValue": false,
                    "isPure": false,
                    "kind": "functionCall",
                    "lValueRequested": false,
                    "names": [],
                    "nodeType": "FunctionCall",
                    "src": "260:22:10",
                    "typeDescriptions": {
                      "typeIdentifier": "t_tuple$__$",
                      "typeString": "tuple()"
                    }
                  },
                  "id": 1620,
                  "nodeType": "ExpressionStatement",
                  "src": "260:22:10"
                }
              ]
            },
            "documentation": null,
            "id": 1622,
            "implemented": true,
            "isConstructor": true,
            "isDeclaredConst": false,
            "modifiers": [],
            "name": "",
            "nodeType": "FunctionDefinition",
            "parameters": {
              "id": 1614,
              "nodeType": "ParameterList",
              "parameters": [],
              "src": "242:2:10"
            },
            "payable": false,
            "returnParameters": {
              "id": 1615,
              "nodeType": "ParameterList",
              "parameters": [],
              "src": "254:0:10"
            },
            "scope": 1700,
            "src": "231:56:10",
            "stateMutability": "nonpayable",
            "superFunction": null,
            "visibility": "internal"
          },
          {
            "body": {
              "id": 1632,
              "nodeType": "Block",
              "src": "313:47:10",
              "statements": [
                {
                  "expression": {
                    "argumentTypes": null,
                    "arguments": [
                      {
                        "argumentTypes": null,
                        "arguments": [
                          {
                            "argumentTypes": null,
                            "expression": {
                              "argumentTypes": null,
                              "id": 1626,
                              "name": "msg",
                              "nodeType": "Identifier",
                              "overloadedDeclarations": [],
                              "referencedDeclaration": 9723,
                              "src": "336:3:10",
                              "typeDescriptions": {
                                "typeIdentifier": "t_magic_message",
                                "typeString": "msg"
                              }
                            },
                            "id": 1627,
                            "isConstant": false,
                            "isLValue": false,
                            "isPure": false,
                            "lValueRequested": false,
                            "memberName": "sender",
                            "nodeType": "MemberAccess",
                            "referencedDeclaration": null,
                            "src": "336:10:10",
                            "typeDescriptions": {
                              "typeIdentifier": "t_address",
                              "typeString": "address"
                            }
                          }
                        ],
                        "expression": {
                          "argumentTypes": [
                            {
                              "typeIdentifier": "t_address",
                              "typeString": "address"
                            }
                          ],
                          "id": 1625,
                          "name": "isSigner",
                          "nodeType": "Identifier",
                          "overloadedDeclarations": [],
                          "referencedDeclaration": 1646,
                          "src": "327:8:10",
                          "typeDescriptions": {
                            "typeIdentifier": "t_function_internal_view$_t_address_$returns$_t_bool_$",
                            "typeString": "function (address) view returns (bool)"
                          }
                        },
                        "id": 1628,
                        "isConstant": false,
                        "isLValue": false,
                        "isPure": false,
                        "kind": "functionCall",
                        "lValueRequested": false,
                        "names": [],
                        "nodeType": "FunctionCall",
                        "src": "327:20:10",
                        "typeDescriptions": {
                          "typeIdentifier": "t_bool",
                          "typeString": "bool"
                        }
                      }
                    ],
                    "expression": {
                      "argumentTypes": [
                        {
                          "typeIdentifier": "t_bool",
                          "typeString": "bool"
                        }
                      ],
                      "id": 1624,
                      "name": "require",
                      "nodeType": "Identifier",
                      "overloadedDeclarations": [
                        9726,
                        9727
                      ],
                      "referencedDeclaration": 9726,
                      "src": "319:7:10",
                      "typeDescriptions": {
                        "typeIdentifier": "t_function_require_pure$_t_bool_$returns$__$",
                        "typeString": "function (bool) pure"
                      }
                    },
                    "id": 1629,
                    "isConstant": false,
                    "isLValue": false,
                    "isPure": false,
                    "kind": "functionCall",
                    "lValueRequested": false,
                    "names": [],
                    "nodeType": "FunctionCall",
                    "src": "319:29:10",
                    "typeDescriptions": {
                      "typeIdentifier": "t_tuple$__$",
                      "typeString": "tuple()"
                    }
                  },
                  "id": 1630,
                  "nodeType": "ExpressionStatement",
                  "src": "319:29:10"
                },
                {
                  "id": 1631,
                  "nodeType": "PlaceholderStatement",
                  "src": "354:1:10"
                }
              ]
            },
            "documentation": null,
            "id": 1633,
            "name": "onlySigner",
            "nodeType": "ModifierDefinition",
            "parameters": {
              "id": 1623,
              "nodeType": "ParameterList",
              "parameters": [],
              "src": "310:2:10"
            },
            "src": "291:69:10",
            "visibility": "internal"
          },
          {
            "body": {
              "id": 1645,
              "nodeType": "Block",
              "src": "426:38:10",
              "statements": [
                {
                  "expression": {
                    "argumentTypes": null,
                    "arguments": [
                      {
                        "argumentTypes": null,
                        "id": 1642,
                        "name": "account",
                        "nodeType": "Identifier",
                        "overloadedDeclarations": [],
                        "referencedDeclaration": 1635,
                        "src": "451:7:10",
                        "typeDescriptions": {
                          "typeIdentifier": "t_address",
                          "typeString": "address"
                        }
                      }
                    ],
                    "expression": {
                      "argumentTypes": [
                        {
                          "typeIdentifier": "t_address",
                          "typeString": "address"
                        }
                      ],
                      "expression": {
                        "argumentTypes": null,
                        "id": 1640,
                        "name": "signers",
                        "nodeType": "Identifier",
                        "overloadedDeclarations": [],
                        "referencedDeclaration": 1613,
                        "src": "439:7:10",
                        "typeDescriptions": {
                          "typeIdentifier": "t_struct$_Role_$1201_storage",
                          "typeString": "struct Roles.Role storage ref"
                        }
                      },
                      "id": 1641,
                      "isConstant": false,
                      "isLValue": true,
                      "isPure": false,
                      "lValueRequested": false,
                      "memberName": "has",
                      "nodeType": "MemberAccess",
                      "referencedDeclaration": 1287,
                      "src": "439:11:10",
                      "typeDescriptions": {
                        "typeIdentifier": "t_function_internal_view$_t_struct$_Role_$1201_storage_ptr_$_t_address_$returns$_t_bool_$bound_to$_t_struct$_Role_$1201_storage_ptr_$",
                        "typeString": "function (struct Roles.Role storage pointer,address) view returns (bool)"
                      }
                    },
                    "id": 1643,
                    "isConstant": false,
                    "isLValue": false,
                    "isPure": false,
                    "kind": "functionCall",
                    "lValueRequested": false,
                    "names": [],
                    "nodeType": "FunctionCall",
                    "src": "439:20:10",
                    "typeDescriptions": {
                      "typeIdentifier": "t_bool",
                      "typeString": "bool"
                    }
                  },
                  "functionReturnParameters": 1639,
                  "id": 1644,
                  "nodeType": "Return",
                  "src": "432:27:10"
                }
              ]
            },
            "documentation": null,
            "id": 1646,
            "implemented": true,
            "isConstructor": false,
            "isDeclaredConst": true,
            "modifiers": [],
            "name": "isSigner",
            "nodeType": "FunctionDefinition",
            "parameters": {
              "id": 1636,
              "nodeType": "ParameterList",
              "parameters": [
                {
                  "constant": false,
                  "id": 1635,
                  "name": "account",
                  "nodeType": "VariableDeclaration",
                  "scope": 1646,
                  "src": "382:15:10",
                  "stateVariable": false,
                  "storageLocation": "default",
                  "typeDescriptions": {
                    "typeIdentifier": "t_address",
                    "typeString": "address"
                  },
                  "typeName": {
                    "id": 1634,
                    "name": "address",
                    "nodeType": "ElementaryTypeName",
                    "src": "382:7:10",
                    "typeDescriptions": {
                      "typeIdentifier": "t_address",
                      "typeString": "address"
                    }
                  },
                  "value": null,
                  "visibility": "internal"
                }
              ],
              "src": "381:17:10"
            },
            "payable": false,
            "returnParameters": {
              "id": 1639,
              "nodeType": "ParameterList",
              "parameters": [
                {
                  "constant": false,
                  "id": 1638,
                  "name": "",
                  "nodeType": "VariableDeclaration",
                  "scope": 1646,
                  "src": "420:4:10",
                  "stateVariable": false,
                  "storageLocation": "default",
                  "typeDescriptions": {
                    "typeIdentifier": "t_bool",
                    "typeString": "bool"
                  },
                  "typeName": {
                    "id": 1637,
                    "name": "bool",
                    "nodeType": "ElementaryTypeName",
                    "src": "420:4:10",
                    "typeDescriptions": {
                      "typeIdentifier": "t_bool",
                      "typeString": "bool"
                    }
                  },
                  "value": null,
                  "visibility": "internal"
                }
              ],
              "src": "419:6:10"
            },
            "scope": 1700,
            "src": "364:100:10",
            "stateMutability": "view",
            "superFunction": null,
            "visibility": "public"
          },
          {
            "body": {
              "id": 1657,
              "nodeType": "Block",
              "src": "522:30:10",
              "statements": [
                {
                  "expression": {
                    "argumentTypes": null,
                    "arguments": [
                      {
                        "argumentTypes": null,
                        "id": 1654,
                        "name": "account",
                        "nodeType": "Identifier",
                        "overloadedDeclarations": [],
                        "referencedDeclaration": 1648,
                        "src": "539:7:10",
                        "typeDescriptions": {
                          "typeIdentifier": "t_address",
                          "typeString": "address"
                        }
                      }
                    ],
                    "expression": {
                      "argumentTypes": [
                        {
                          "typeIdentifier": "t_address",
                          "typeString": "address"
                        }
                      ],
                      "id": 1653,
                      "name": "_addSigner",
                      "nodeType": "Identifier",
                      "overloadedDeclarations": [],
                      "referencedDeclaration": 1683,
                      "src": "528:10:10",
                      "typeDescriptions": {
                        "typeIdentifier": "t_function_internal_nonpayable$_t_address_$returns$__$",
                        "typeString": "function (address)"
                      }
                    },
                    "id": 1655,
                    "isConstant": false,
                    "isLValue": false,
                    "isPure": false,
                    "kind": "functionCall",
                    "lValueRequested": false,
                    "names": [],
                    "nodeType": "FunctionCall",
                    "src": "528:19:10",
                    "typeDescriptions": {
                      "typeIdentifier": "t_tuple$__$",
                      "typeString": "tuple()"
                    }
                  },
                  "id": 1656,
                  "nodeType": "ExpressionStatement",
                  "src": "528:19:10"
                }
              ]
            },
            "documentation": null,
            "id": 1658,
            "implemented": true,
            "isConstructor": false,
            "isDeclaredConst": false,
            "modifiers": [
              {
                "arguments": null,
                "id": 1651,
                "modifierName": {
                  "argumentTypes": null,
                  "id": 1650,
                  "name": "onlySigner",
                  "nodeType": "Identifier",
                  "overloadedDeclarations": [],
                  "referencedDeclaration": 1633,
                  "src": "511:10:10",
                  "typeDescriptions": {
                    "typeIdentifier": "t_modifier$__$",
                    "typeString": "modifier ()"
                  }
                },
                "nodeType": "ModifierInvocation",
                "src": "511:10:10"
              }
            ],
            "name": "addSigner",
            "nodeType": "FunctionDefinition",
            "parameters": {
              "id": 1649,
              "nodeType": "ParameterList",
              "parameters": [
                {
                  "constant": false,
                  "id": 1648,
                  "name": "account",
                  "nodeType": "VariableDeclaration",
                  "scope": 1658,
                  "src": "487:15:10",
                  "stateVariable": false,
                  "storageLocation": "default",
                  "typeDescriptions": {
                    "typeIdentifier": "t_address",
                    "typeString": "address"
                  },
                  "typeName": {
                    "id": 1647,
                    "name": "address",
                    "nodeType": "ElementaryTypeName",
                    "src": "487:7:10",
                    "typeDescriptions": {
                      "typeIdentifier": "t_address",
                      "typeString": "address"
                    }
                  },
                  "value": null,
                  "visibility": "internal"
                }
              ],
              "src": "486:17:10"
            },
            "payable": false,
            "returnParameters": {
              "id": 1652,
              "nodeType": "ParameterList",
              "parameters": [],
              "src": "522:0:10"
            },
            "scope": 1700,
            "src": "468:84:10",
            "stateMutability": "nonpayable",
            "superFunction": null,
            "visibility": "public"
          },
          {
            "body": {
              "id": 1666,
              "nodeType": "Block",
              "src": "589:36:10",
              "statements": [
                {
                  "expression": {
                    "argumentTypes": null,
                    "arguments": [
                      {
                        "argumentTypes": null,
                        "expression": {
                          "argumentTypes": null,
                          "id": 1662,
                          "name": "msg",
                          "nodeType": "Identifier",
                          "overloadedDeclarations": [],
                          "referencedDeclaration": 9723,
                          "src": "609:3:10",
                          "typeDescriptions": {
                            "typeIdentifier": "t_magic_message",
                            "typeString": "msg"
                          }
                        },
                        "id": 1663,
                        "isConstant": false,
                        "isLValue": false,
                        "isPure": false,
                        "lValueRequested": false,
                        "memberName": "sender",
                        "nodeType": "MemberAccess",
                        "referencedDeclaration": null,
                        "src": "609:10:10",
                        "typeDescriptions": {
                          "typeIdentifier": "t_address",
                          "typeString": "address"
                        }
                      }
                    ],
                    "expression": {
                      "argumentTypes": [
                        {
                          "typeIdentifier": "t_address",
                          "typeString": "address"
                        }
                      ],
                      "id": 1661,
                      "name": "_removeSigner",
                      "nodeType": "Identifier",
                      "overloadedDeclarations": [],
                      "referencedDeclaration": 1699,
                      "src": "595:13:10",
                      "typeDescriptions": {
                        "typeIdentifier": "t_function_internal_nonpayable$_t_address_$returns$__$",
                        "typeString": "function (address)"
                      }
                    },
                    "id": 1664,
                    "isConstant": false,
                    "isLValue": false,
                    "isPure": false,
                    "kind": "functionCall",
                    "lValueRequested": false,
                    "names": [],
                    "nodeType": "FunctionCall",
                    "src": "595:25:10",
                    "typeDescriptions": {
                      "typeIdentifier": "t_tuple$__$",
                      "typeString": "tuple()"
                    }
                  },
                  "id": 1665,
                  "nodeType": "ExpressionStatement",
                  "src": "595:25:10"
                }
              ]
            },
            "documentation": null,
            "id": 1667,
            "implemented": true,
            "isConstructor": false,
            "isDeclaredConst": false,
            "modifiers": [],
            "name": "renounceSigner",
            "nodeType": "FunctionDefinition",
            "parameters": {
              "id": 1659,
              "nodeType": "ParameterList",
              "parameters": [],
              "src": "579:2:10"
            },
            "payable": false,
            "returnParameters": {
              "id": 1660,
              "nodeType": "ParameterList",
              "parameters": [],
              "src": "589:0:10"
            },
            "scope": 1700,
            "src": "556:69:10",
            "stateMutability": "nonpayable",
            "superFunction": null,
            "visibility": "public"
          },
          {
            "body": {
              "id": 1682,
              "nodeType": "Block",
              "src": "675:62:10",
              "statements": [
                {
                  "expression": {
                    "argumentTypes": null,
                    "arguments": [
                      {
                        "argumentTypes": null,
                        "id": 1675,
                        "name": "account",
                        "nodeType": "Identifier",
                        "overloadedDeclarations": [],
                        "referencedDeclaration": 1669,
                        "src": "693:7:10",
                        "typeDescriptions": {
                          "typeIdentifier": "t_address",
                          "typeString": "address"
                        }
                      }
                    ],
                    "expression": {
                      "argumentTypes": [
                        {
                          "typeIdentifier": "t_address",
                          "typeString": "address"
                        }
                      ],
                      "expression": {
                        "argumentTypes": null,
                        "id": 1672,
                        "name": "signers",
                        "nodeType": "Identifier",
                        "overloadedDeclarations": [],
                        "referencedDeclaration": 1613,
                        "src": "681:7:10",
                        "typeDescriptions": {
                          "typeIdentifier": "t_struct$_Role_$1201_storage",
                          "typeString": "struct Roles.Role storage ref"
                        }
                      },
                      "id": 1674,
                      "isConstant": false,
                      "isLValue": true,
                      "isPure": false,
                      "lValueRequested": false,
                      "memberName": "add",
                      "nodeType": "MemberAccess",
                      "referencedDeclaration": 1233,
                      "src": "681:11:10",
                      "typeDescriptions": {
                        "typeIdentifier": "t_function_internal_nonpayable$_t_struct$_Role_$1201_storage_ptr_$_t_address_$returns$__$bound_to$_t_struct$_Role_$1201_storage_ptr_$",
                        "typeString": "function (struct Roles.Role storage pointer,address)"
                      }
                    },
                    "id": 1676,
                    "isConstant": false,
                    "isLValue": false,
                    "isPure": false,
                    "kind": "functionCall",
                    "lValueRequested": false,
                    "names": [],
                    "nodeType": "FunctionCall",
                    "src": "681:20:10",
                    "typeDescriptions": {
                      "typeIdentifier": "t_tuple$__$",
                      "typeString": "tuple()"
                    }
                  },
                  "id": 1677,
                  "nodeType": "ExpressionStatement",
                  "src": "681:20:10"
                },
                {
                  "eventCall": {
                    "argumentTypes": null,
                    "arguments": [
                      {
                        "argumentTypes": null,
                        "id": 1679,
                        "name": "account",
                        "nodeType": "Identifier",
                        "overloadedDeclarations": [],
                        "referencedDeclaration": 1669,
                        "src": "724:7:10",
                        "typeDescriptions": {
                          "typeIdentifier": "t_address",
                          "typeString": "address"
                        }
                      }
                    ],
                    "expression": {
                      "argumentTypes": [
                        {
                          "typeIdentifier": "t_address",
                          "typeString": "address"
                        }
                      ],
                      "id": 1678,
                      "name": "SignerAdded",
                      "nodeType": "Identifier",
                      "overloadedDeclarations": [],
                      "referencedDeclaration": 1607,
                      "src": "712:11:10",
                      "typeDescriptions": {
                        "typeIdentifier": "t_function_event_nonpayable$_t_address_$returns$__$",
                        "typeString": "function (address)"
                      }
                    },
                    "id": 1680,
                    "isConstant": false,
                    "isLValue": false,
                    "isPure": false,
                    "kind": "functionCall",
                    "lValueRequested": false,
                    "names": [],
                    "nodeType": "FunctionCall",
                    "src": "712:20:10",
                    "typeDescriptions": {
                      "typeIdentifier": "t_tuple$__$",
                      "typeString": "tuple()"
                    }
                  },
                  "id": 1681,
                  "nodeType": "EmitStatement",
                  "src": "707:25:10"
                }
              ]
            },
            "documentation": null,
            "id": 1683,
            "implemented": true,
            "isConstructor": false,
            "isDeclaredConst": false,
            "modifiers": [],
            "name": "_addSigner",
            "nodeType": "FunctionDefinition",
            "parameters": {
              "id": 1670,
              "nodeType": "ParameterList",
              "parameters": [
                {
                  "constant": false,
                  "id": 1669,
                  "name": "account",
                  "nodeType": "VariableDeclaration",
                  "scope": 1683,
                  "src": "649:15:10",
                  "stateVariable": false,
                  "storageLocation": "default",
                  "typeDescriptions": {
                    "typeIdentifier": "t_address",
                    "typeString": "address"
                  },
                  "typeName": {
                    "id": 1668,
                    "name": "address",
                    "nodeType": "ElementaryTypeName",
                    "src": "649:7:10",
                    "typeDescriptions": {
                      "typeIdentifier": "t_address",
                      "typeString": "address"
                    }
                  },
                  "value": null,
                  "visibility": "internal"
                }
              ],
              "src": "648:17:10"
            },
            "payable": false,
            "returnParameters": {
              "id": 1671,
              "nodeType": "ParameterList",
              "parameters": [],
              "src": "675:0:10"
            },
            "scope": 1700,
            "src": "629:108:10",
            "stateMutability": "nonpayable",
            "superFunction": null,
            "visibility": "internal"
          },
          {
            "body": {
              "id": 1698,
              "nodeType": "Block",
              "src": "790:67:10",
              "statements": [
                {
                  "expression": {
                    "argumentTypes": null,
                    "arguments": [
                      {
                        "argumentTypes": null,
                        "id": 1691,
                        "name": "account",
                        "nodeType": "Identifier",
                        "overloadedDeclarations": [],
                        "referencedDeclaration": 1685,
                        "src": "811:7:10",
                        "typeDescriptions": {
                          "typeIdentifier": "t_address",
                          "typeString": "address"
                        }
                      }
                    ],
                    "expression": {
                      "argumentTypes": [
                        {
                          "typeIdentifier": "t_address",
                          "typeString": "address"
                        }
                      ],
                      "expression": {
                        "argumentTypes": null,
                        "id": 1688,
                        "name": "signers",
                        "nodeType": "Identifier",
                        "overloadedDeclarations": [],
                        "referencedDeclaration": 1613,
                        "src": "796:7:10",
                        "typeDescriptions": {
                          "typeIdentifier": "t_struct$_Role_$1201_storage",
                          "typeString": "struct Roles.Role storage ref"
                        }
                      },
                      "id": 1690,
                      "isConstant": false,
                      "isLValue": true,
                      "isPure": false,
                      "lValueRequested": false,
                      "memberName": "remove",
                      "nodeType": "MemberAccess",
                      "referencedDeclaration": 1264,
                      "src": "796:14:10",
                      "typeDescriptions": {
                        "typeIdentifier": "t_function_internal_nonpayable$_t_struct$_Role_$1201_storage_ptr_$_t_address_$returns$__$bound_to$_t_struct$_Role_$1201_storage_ptr_$",
                        "typeString": "function (struct Roles.Role storage pointer,address)"
                      }
                    },
                    "id": 1692,
                    "isConstant": false,
                    "isLValue": false,
                    "isPure": false,
                    "kind": "functionCall",
                    "lValueRequested": false,
                    "names": [],
                    "nodeType": "FunctionCall",
                    "src": "796:23:10",
                    "typeDescriptions": {
                      "typeIdentifier": "t_tuple$__$",
                      "typeString": "tuple()"
                    }
                  },
                  "id": 1693,
                  "nodeType": "ExpressionStatement",
                  "src": "796:23:10"
                },
                {
                  "eventCall": {
                    "argumentTypes": null,
                    "arguments": [
                      {
                        "argumentTypes": null,
                        "id": 1695,
                        "name": "account",
                        "nodeType": "Identifier",
                        "overloadedDeclarations": [],
                        "referencedDeclaration": 1685,
                        "src": "844:7:10",
                        "typeDescriptions": {
                          "typeIdentifier": "t_address",
                          "typeString": "address"
                        }
                      }
                    ],
                    "expression": {
                      "argumentTypes": [
                        {
                          "typeIdentifier": "t_address",
                          "typeString": "address"
                        }
                      ],
                      "id": 1694,
                      "name": "SignerRemoved",
                      "nodeType": "Identifier",
                      "overloadedDeclarations": [],
                      "referencedDeclaration": 1611,
                      "src": "830:13:10",
                      "typeDescriptions": {
                        "typeIdentifier": "t_function_event_nonpayable$_t_address_$returns$__$",
                        "typeString": "function (address)"
                      }
                    },
                    "id": 1696,
                    "isConstant": false,
                    "isLValue": false,
                    "isPure": false,
                    "kind": "functionCall",
                    "lValueRequested": false,
                    "names": [],
                    "nodeType": "FunctionCall",
                    "src": "830:22:10",
                    "typeDescriptions": {
                      "typeIdentifier": "t_tuple$__$",
                      "typeString": "tuple()"
                    }
                  },
                  "id": 1697,
                  "nodeType": "EmitStatement",
                  "src": "825:27:10"
                }
              ]
            },
            "documentation": null,
            "id": 1699,
            "implemented": true,
            "isConstructor": false,
            "isDeclaredConst": false,
            "modifiers": [],
            "name": "_removeSigner",
            "nodeType": "FunctionDefinition",
            "parameters": {
              "id": 1686,
              "nodeType": "ParameterList",
              "parameters": [
                {
                  "constant": false,
                  "id": 1685,
                  "name": "account",
                  "nodeType": "VariableDeclaration",
                  "scope": 1699,
                  "src": "764:15:10",
                  "stateVariable": false,
                  "storageLocation": "default",
                  "typeDescriptions": {
                    "typeIdentifier": "t_address",
                    "typeString": "address"
                  },
                  "typeName": {
                    "id": 1684,
                    "name": "address",
                    "nodeType": "ElementaryTypeName",
                    "src": "764:7:10",
                    "typeDescriptions": {
                      "typeIdentifier": "t_address",
                      "typeString": "address"
                    }
                  },
                  "value": null,
                  "visibility": "internal"
                }
              ],
              "src": "763:17:10"
            },
            "payable": false,
            "returnParameters": {
              "id": 1687,
              "nodeType": "ParameterList",
              "parameters": [],
              "src": "790:0:10"
            },
            "scope": 1700,
            "src": "741:116:10",
            "stateMutability": "nonpayable",
            "superFunction": null,
            "visibility": "internal"
          }
        ],
        "scope": 1701,
        "src": "50:809:10"
      }
    ],
    "src": "0:860:10"
  },
  "legacyAST": {
    "absolutePath": "/home/truffle-project/contracts/openzeppelin/access/roles/SignerRole.sol",
    "exportedSymbols": {
      "SignerRole": [
        1700
      ]
    },
    "id": 1701,
    "nodeType": "SourceUnit",
    "nodes": [
      {
        "id": 1599,
        "literals": [
          "solidity",
          "^",
          "0.4",
          ".24"
        ],
        "nodeType": "PragmaDirective",
        "src": "0:24:10"
      },
      {
        "absolutePath": "/home/truffle-project/contracts/openzeppelin/access/Roles.sol",
        "file": "../Roles.sol",
        "id": 1600,
        "nodeType": "ImportDirective",
        "scope": 1701,
        "sourceUnit": 1289,
        "src": "26:22:10",
        "symbolAliases": [],
        "unitAlias": ""
      },
      {
        "baseContracts": [],
        "contractDependencies": [],
        "contractKind": "contract",
        "documentation": null,
        "fullyImplemented": true,
        "id": 1700,
        "linearizedBaseContracts": [
          1700
        ],
        "name": "SignerRole",
        "nodeType": "ContractDefinition",
        "nodes": [
          {
            "id": 1603,
            "libraryName": {
              "contractScope": null,
              "id": 1601,
              "name": "Roles",
              "nodeType": "UserDefinedTypeName",
              "referencedDeclaration": 1288,
              "src": "80:5:10",
              "typeDescriptions": {
                "typeIdentifier": "t_contract$_Roles_$1288",
                "typeString": "library Roles"
              }
            },
            "nodeType": "UsingForDirective",
            "src": "74:27:10",
            "typeName": {
              "contractScope": null,
              "id": 1602,
              "name": "Roles.Role",
              "nodeType": "UserDefinedTypeName",
              "referencedDeclaration": 1201,
              "src": "90:10:10",
              "typeDescriptions": {
                "typeIdentifier": "t_struct$_Role_$1201_storage_ptr",
                "typeString": "struct Roles.Role"
              }
            }
          },
          {
            "anonymous": false,
            "documentation": null,
            "id": 1607,
            "name": "SignerAdded",
            "nodeType": "EventDefinition",
            "parameters": {
              "id": 1606,
              "nodeType": "ParameterList",
              "parameters": [
                {
                  "constant": false,
                  "id": 1605,
                  "indexed": true,
                  "name": "account",
                  "nodeType": "VariableDeclaration",
                  "scope": 1607,
                  "src": "123:23:10",
                  "stateVariable": false,
                  "storageLocation": "default",
                  "typeDescriptions": {
                    "typeIdentifier": "t_address",
                    "typeString": "address"
                  },
                  "typeName": {
                    "id": 1604,
                    "name": "address",
                    "nodeType": "ElementaryTypeName",
                    "src": "123:7:10",
                    "typeDescriptions": {
                      "typeIdentifier": "t_address",
                      "typeString": "address"
                    }
                  },
                  "value": null,
                  "visibility": "internal"
                }
              ],
              "src": "122:25:10"
            },
            "src": "105:43:10"
          },
          {
            "anonymous": false,
            "documentation": null,
            "id": 1611,
            "name": "SignerRemoved",
            "nodeType": "EventDefinition",
            "parameters": {
              "id": 1610,
              "nodeType": "ParameterList",
              "parameters": [
                {
                  "constant": false,
                  "id": 1609,
                  "indexed": true,
                  "name": "account",
                  "nodeType": "VariableDeclaration",
                  "scope": 1611,
                  "src": "171:23:10",
                  "stateVariable": false,
                  "storageLocation": "default",
                  "typeDescriptions": {
                    "typeIdentifier": "t_address",
                    "typeString": "address"
                  },
                  "typeName": {
                    "id": 1608,
                    "name": "address",
                    "nodeType": "ElementaryTypeName",
                    "src": "171:7:10",
                    "typeDescriptions": {
                      "typeIdentifier": "t_address",
                      "typeString": "address"
                    }
                  },
                  "value": null,
                  "visibility": "internal"
                }
              ],
              "src": "170:25:10"
            },
            "src": "151:45:10"
          },
          {
            "constant": false,
            "id": 1613,
            "name": "signers",
            "nodeType": "VariableDeclaration",
            "scope": 1700,
            "src": "200:26:10",
            "stateVariable": true,
            "storageLocation": "default",
            "typeDescriptions": {
              "typeIdentifier": "t_struct$_Role_$1201_storage",
              "typeString": "struct Roles.Role"
            },
            "typeName": {
              "contractScope": null,
              "id": 1612,
              "name": "Roles.Role",
              "nodeType": "UserDefinedTypeName",
              "referencedDeclaration": 1201,
              "src": "200:10:10",
              "typeDescriptions": {
                "typeIdentifier": "t_struct$_Role_$1201_storage_ptr",
                "typeString": "struct Roles.Role"
              }
            },
            "value": null,
            "visibility": "private"
          },
          {
            "body": {
              "id": 1621,
              "nodeType": "Block",
              "src": "254:33:10",
              "statements": [
                {
                  "expression": {
                    "argumentTypes": null,
                    "arguments": [
                      {
                        "argumentTypes": null,
                        "expression": {
                          "argumentTypes": null,
                          "id": 1617,
                          "name": "msg",
                          "nodeType": "Identifier",
                          "overloadedDeclarations": [],
                          "referencedDeclaration": 9723,
                          "src": "271:3:10",
                          "typeDescriptions": {
                            "typeIdentifier": "t_magic_message",
                            "typeString": "msg"
                          }
                        },
                        "id": 1618,
                        "isConstant": false,
                        "isLValue": false,
                        "isPure": false,
                        "lValueRequested": false,
                        "memberName": "sender",
                        "nodeType": "MemberAccess",
                        "referencedDeclaration": null,
                        "src": "271:10:10",
                        "typeDescriptions": {
                          "typeIdentifier": "t_address",
                          "typeString": "address"
                        }
                      }
                    ],
                    "expression": {
                      "argumentTypes": [
                        {
                          "typeIdentifier": "t_address",
                          "typeString": "address"
                        }
                      ],
                      "id": 1616,
                      "name": "_addSigner",
                      "nodeType": "Identifier",
                      "overloadedDeclarations": [],
                      "referencedDeclaration": 1683,
                      "src": "260:10:10",
                      "typeDescriptions": {
                        "typeIdentifier": "t_function_internal_nonpayable$_t_address_$returns$__$",
                        "typeString": "function (address)"
                      }
                    },
                    "id": 1619,
                    "isConstant": false,
                    "isLValue": false,
                    "isPure": false,
                    "kind": "functionCall",
                    "lValueRequested": false,
                    "names": [],
                    "nodeType": "FunctionCall",
                    "src": "260:22:10",
                    "typeDescriptions": {
                      "typeIdentifier": "t_tuple$__$",
                      "typeString": "tuple()"
                    }
                  },
                  "id": 1620,
                  "nodeType": "ExpressionStatement",
                  "src": "260:22:10"
                }
              ]
            },
            "documentation": null,
            "id": 1622,
            "implemented": true,
            "isConstructor": true,
            "isDeclaredConst": false,
            "modifiers": [],
            "name": "",
            "nodeType": "FunctionDefinition",
            "parameters": {
              "id": 1614,
              "nodeType": "ParameterList",
              "parameters": [],
              "src": "242:2:10"
            },
            "payable": false,
            "returnParameters": {
              "id": 1615,
              "nodeType": "ParameterList",
              "parameters": [],
              "src": "254:0:10"
            },
            "scope": 1700,
            "src": "231:56:10",
            "stateMutability": "nonpayable",
            "superFunction": null,
            "visibility": "internal"
          },
          {
            "body": {
              "id": 1632,
              "nodeType": "Block",
              "src": "313:47:10",
              "statements": [
                {
                  "expression": {
                    "argumentTypes": null,
                    "arguments": [
                      {
                        "argumentTypes": null,
                        "arguments": [
                          {
                            "argumentTypes": null,
                            "expression": {
                              "argumentTypes": null,
                              "id": 1626,
                              "name": "msg",
                              "nodeType": "Identifier",
                              "overloadedDeclarations": [],
                              "referencedDeclaration": 9723,
                              "src": "336:3:10",
                              "typeDescriptions": {
                                "typeIdentifier": "t_magic_message",
                                "typeString": "msg"
                              }
                            },
                            "id": 1627,
                            "isConstant": false,
                            "isLValue": false,
                            "isPure": false,
                            "lValueRequested": false,
                            "memberName": "sender",
                            "nodeType": "MemberAccess",
                            "referencedDeclaration": null,
                            "src": "336:10:10",
                            "typeDescriptions": {
                              "typeIdentifier": "t_address",
                              "typeString": "address"
                            }
                          }
                        ],
                        "expression": {
                          "argumentTypes": [
                            {
                              "typeIdentifier": "t_address",
                              "typeString": "address"
                            }
                          ],
                          "id": 1625,
                          "name": "isSigner",
                          "nodeType": "Identifier",
                          "overloadedDeclarations": [],
                          "referencedDeclaration": 1646,
                          "src": "327:8:10",
                          "typeDescriptions": {
                            "typeIdentifier": "t_function_internal_view$_t_address_$returns$_t_bool_$",
                            "typeString": "function (address) view returns (bool)"
                          }
                        },
                        "id": 1628,
                        "isConstant": false,
                        "isLValue": false,
                        "isPure": false,
                        "kind": "functionCall",
                        "lValueRequested": false,
                        "names": [],
                        "nodeType": "FunctionCall",
                        "src": "327:20:10",
                        "typeDescriptions": {
                          "typeIdentifier": "t_bool",
                          "typeString": "bool"
                        }
                      }
                    ],
                    "expression": {
                      "argumentTypes": [
                        {
                          "typeIdentifier": "t_bool",
                          "typeString": "bool"
                        }
                      ],
                      "id": 1624,
                      "name": "require",
                      "nodeType": "Identifier",
                      "overloadedDeclarations": [
                        9726,
                        9727
                      ],
                      "referencedDeclaration": 9726,
                      "src": "319:7:10",
                      "typeDescriptions": {
                        "typeIdentifier": "t_function_require_pure$_t_bool_$returns$__$",
                        "typeString": "function (bool) pure"
                      }
                    },
                    "id": 1629,
                    "isConstant": false,
                    "isLValue": false,
                    "isPure": false,
                    "kind": "functionCall",
                    "lValueRequested": false,
                    "names": [],
                    "nodeType": "FunctionCall",
                    "src": "319:29:10",
                    "typeDescriptions": {
                      "typeIdentifier": "t_tuple$__$",
                      "typeString": "tuple()"
                    }
                  },
                  "id": 1630,
                  "nodeType": "ExpressionStatement",
                  "src": "319:29:10"
                },
                {
                  "id": 1631,
                  "nodeType": "PlaceholderStatement",
                  "src": "354:1:10"
                }
              ]
            },
            "documentation": null,
            "id": 1633,
            "name": "onlySigner",
            "nodeType": "ModifierDefinition",
            "parameters": {
              "id": 1623,
              "nodeType": "ParameterList",
              "parameters": [],
              "src": "310:2:10"
            },
            "src": "291:69:10",
            "visibility": "internal"
          },
          {
            "body": {
              "id": 1645,
              "nodeType": "Block",
              "src": "426:38:10",
              "statements": [
                {
                  "expression": {
                    "argumentTypes": null,
                    "arguments": [
                      {
                        "argumentTypes": null,
                        "id": 1642,
                        "name": "account",
                        "nodeType": "Identifier",
                        "overloadedDeclarations": [],
                        "referencedDeclaration": 1635,
                        "src": "451:7:10",
                        "typeDescriptions": {
                          "typeIdentifier": "t_address",
                          "typeString": "address"
                        }
                      }
                    ],
                    "expression": {
                      "argumentTypes": [
                        {
                          "typeIdentifier": "t_address",
                          "typeString": "address"
                        }
                      ],
                      "expression": {
                        "argumentTypes": null,
                        "id": 1640,
                        "name": "signers",
                        "nodeType": "Identifier",
                        "overloadedDeclarations": [],
                        "referencedDeclaration": 1613,
                        "src": "439:7:10",
                        "typeDescriptions": {
                          "typeIdentifier": "t_struct$_Role_$1201_storage",
                          "typeString": "struct Roles.Role storage ref"
                        }
                      },
                      "id": 1641,
                      "isConstant": false,
                      "isLValue": true,
                      "isPure": false,
                      "lValueRequested": false,
                      "memberName": "has",
                      "nodeType": "MemberAccess",
                      "referencedDeclaration": 1287,
                      "src": "439:11:10",
                      "typeDescriptions": {
                        "typeIdentifier": "t_function_internal_view$_t_struct$_Role_$1201_storage_ptr_$_t_address_$returns$_t_bool_$bound_to$_t_struct$_Role_$1201_storage_ptr_$",
                        "typeString": "function (struct Roles.Role storage pointer,address) view returns (bool)"
                      }
                    },
                    "id": 1643,
                    "isConstant": false,
                    "isLValue": false,
                    "isPure": false,
                    "kind": "functionCall",
                    "lValueRequested": false,
                    "names": [],
                    "nodeType": "FunctionCall",
                    "src": "439:20:10",
                    "typeDescriptions": {
                      "typeIdentifier": "t_bool",
                      "typeString": "bool"
                    }
                  },
                  "functionReturnParameters": 1639,
                  "id": 1644,
                  "nodeType": "Return",
                  "src": "432:27:10"
                }
              ]
            },
            "documentation": null,
            "id": 1646,
            "implemented": true,
            "isConstructor": false,
            "isDeclaredConst": true,
            "modifiers": [],
            "name": "isSigner",
            "nodeType": "FunctionDefinition",
            "parameters": {
              "id": 1636,
              "nodeType": "ParameterList",
              "parameters": [
                {
                  "constant": false,
                  "id": 1635,
                  "name": "account",
                  "nodeType": "VariableDeclaration",
                  "scope": 1646,
                  "src": "382:15:10",
                  "stateVariable": false,
                  "storageLocation": "default",
                  "typeDescriptions": {
                    "typeIdentifier": "t_address",
                    "typeString": "address"
                  },
                  "typeName": {
                    "id": 1634,
                    "name": "address",
                    "nodeType": "ElementaryTypeName",
                    "src": "382:7:10",
                    "typeDescriptions": {
                      "typeIdentifier": "t_address",
                      "typeString": "address"
                    }
                  },
                  "value": null,
                  "visibility": "internal"
                }
              ],
              "src": "381:17:10"
            },
            "payable": false,
            "returnParameters": {
              "id": 1639,
              "nodeType": "ParameterList",
              "parameters": [
                {
                  "constant": false,
                  "id": 1638,
                  "name": "",
                  "nodeType": "VariableDeclaration",
                  "scope": 1646,
                  "src": "420:4:10",
                  "stateVariable": false,
                  "storageLocation": "default",
                  "typeDescriptions": {
                    "typeIdentifier": "t_bool",
                    "typeString": "bool"
                  },
                  "typeName": {
                    "id": 1637,
                    "name": "bool",
                    "nodeType": "ElementaryTypeName",
                    "src": "420:4:10",
                    "typeDescriptions": {
                      "typeIdentifier": "t_bool",
                      "typeString": "bool"
                    }
                  },
                  "value": null,
                  "visibility": "internal"
                }
              ],
              "src": "419:6:10"
            },
            "scope": 1700,
            "src": "364:100:10",
            "stateMutability": "view",
            "superFunction": null,
            "visibility": "public"
          },
          {
            "body": {
              "id": 1657,
              "nodeType": "Block",
              "src": "522:30:10",
              "statements": [
                {
                  "expression": {
                    "argumentTypes": null,
                    "arguments": [
                      {
                        "argumentTypes": null,
                        "id": 1654,
                        "name": "account",
                        "nodeType": "Identifier",
                        "overloadedDeclarations": [],
                        "referencedDeclaration": 1648,
                        "src": "539:7:10",
                        "typeDescriptions": {
                          "typeIdentifier": "t_address",
                          "typeString": "address"
                        }
                      }
                    ],
                    "expression": {
                      "argumentTypes": [
                        {
                          "typeIdentifier": "t_address",
                          "typeString": "address"
                        }
                      ],
                      "id": 1653,
                      "name": "_addSigner",
                      "nodeType": "Identifier",
                      "overloadedDeclarations": [],
                      "referencedDeclaration": 1683,
                      "src": "528:10:10",
                      "typeDescriptions": {
                        "typeIdentifier": "t_function_internal_nonpayable$_t_address_$returns$__$",
                        "typeString": "function (address)"
                      }
                    },
                    "id": 1655,
                    "isConstant": false,
                    "isLValue": false,
                    "isPure": false,
                    "kind": "functionCall",
                    "lValueRequested": false,
                    "names": [],
                    "nodeType": "FunctionCall",
                    "src": "528:19:10",
                    "typeDescriptions": {
                      "typeIdentifier": "t_tuple$__$",
                      "typeString": "tuple()"
                    }
                  },
                  "id": 1656,
                  "nodeType": "ExpressionStatement",
                  "src": "528:19:10"
                }
              ]
            },
            "documentation": null,
            "id": 1658,
            "implemented": true,
            "isConstructor": false,
            "isDeclaredConst": false,
            "modifiers": [
              {
                "arguments": null,
                "id": 1651,
                "modifierName": {
                  "argumentTypes": null,
                  "id": 1650,
                  "name": "onlySigner",
                  "nodeType": "Identifier",
                  "overloadedDeclarations": [],
                  "referencedDeclaration": 1633,
                  "src": "511:10:10",
                  "typeDescriptions": {
                    "typeIdentifier": "t_modifier$__$",
                    "typeString": "modifier ()"
                  }
                },
                "nodeType": "ModifierInvocation",
                "src": "511:10:10"
              }
            ],
            "name": "addSigner",
            "nodeType": "FunctionDefinition",
            "parameters": {
              "id": 1649,
              "nodeType": "ParameterList",
              "parameters": [
                {
                  "constant": false,
                  "id": 1648,
                  "name": "account",
                  "nodeType": "VariableDeclaration",
                  "scope": 1658,
                  "src": "487:15:10",
                  "stateVariable": false,
                  "storageLocation": "default",
                  "typeDescriptions": {
                    "typeIdentifier": "t_address",
                    "typeString": "address"
                  },
                  "typeName": {
                    "id": 1647,
                    "name": "address",
                    "nodeType": "ElementaryTypeName",
                    "src": "487:7:10",
                    "typeDescriptions": {
                      "typeIdentifier": "t_address",
                      "typeString": "address"
                    }
                  },
                  "value": null,
                  "visibility": "internal"
                }
              ],
              "src": "486:17:10"
            },
            "payable": false,
            "returnParameters": {
              "id": 1652,
              "nodeType": "ParameterList",
              "parameters": [],
              "src": "522:0:10"
            },
            "scope": 1700,
            "src": "468:84:10",
            "stateMutability": "nonpayable",
            "superFunction": null,
            "visibility": "public"
          },
          {
            "body": {
              "id": 1666,
              "nodeType": "Block",
              "src": "589:36:10",
              "statements": [
                {
                  "expression": {
                    "argumentTypes": null,
                    "arguments": [
                      {
                        "argumentTypes": null,
                        "expression": {
                          "argumentTypes": null,
                          "id": 1662,
                          "name": "msg",
                          "nodeType": "Identifier",
                          "overloadedDeclarations": [],
                          "referencedDeclaration": 9723,
                          "src": "609:3:10",
                          "typeDescriptions": {
                            "typeIdentifier": "t_magic_message",
                            "typeString": "msg"
                          }
                        },
                        "id": 1663,
                        "isConstant": false,
                        "isLValue": false,
                        "isPure": false,
                        "lValueRequested": false,
                        "memberName": "sender",
                        "nodeType": "MemberAccess",
                        "referencedDeclaration": null,
                        "src": "609:10:10",
                        "typeDescriptions": {
                          "typeIdentifier": "t_address",
                          "typeString": "address"
                        }
                      }
                    ],
                    "expression": {
                      "argumentTypes": [
                        {
                          "typeIdentifier": "t_address",
                          "typeString": "address"
                        }
                      ],
                      "id": 1661,
                      "name": "_removeSigner",
                      "nodeType": "Identifier",
                      "overloadedDeclarations": [],
                      "referencedDeclaration": 1699,
                      "src": "595:13:10",
                      "typeDescriptions": {
                        "typeIdentifier": "t_function_internal_nonpayable$_t_address_$returns$__$",
                        "typeString": "function (address)"
                      }
                    },
                    "id": 1664,
                    "isConstant": false,
                    "isLValue": false,
                    "isPure": false,
                    "kind": "functionCall",
                    "lValueRequested": false,
                    "names": [],
                    "nodeType": "FunctionCall",
                    "src": "595:25:10",
                    "typeDescriptions": {
                      "typeIdentifier": "t_tuple$__$",
                      "typeString": "tuple()"
                    }
                  },
                  "id": 1665,
                  "nodeType": "ExpressionStatement",
                  "src": "595:25:10"
                }
              ]
            },
            "documentation": null,
            "id": 1667,
            "implemented": true,
            "isConstructor": false,
            "isDeclaredConst": false,
            "modifiers": [],
            "name": "renounceSigner",
            "nodeType": "FunctionDefinition",
            "parameters": {
              "id": 1659,
              "nodeType": "ParameterList",
              "parameters": [],
              "src": "579:2:10"
            },
            "payable": false,
            "returnParameters": {
              "id": 1660,
              "nodeType": "ParameterList",
              "parameters": [],
              "src": "589:0:10"
            },
            "scope": 1700,
            "src": "556:69:10",
            "stateMutability": "nonpayable",
            "superFunction": null,
            "visibility": "public"
          },
          {
            "body": {
              "id": 1682,
              "nodeType": "Block",
              "src": "675:62:10",
              "statements": [
                {
                  "expression": {
                    "argumentTypes": null,
                    "arguments": [
                      {
                        "argumentTypes": null,
                        "id": 1675,
                        "name": "account",
                        "nodeType": "Identifier",
                        "overloadedDeclarations": [],
                        "referencedDeclaration": 1669,
                        "src": "693:7:10",
                        "typeDescriptions": {
                          "typeIdentifier": "t_address",
                          "typeString": "address"
                        }
                      }
                    ],
                    "expression": {
                      "argumentTypes": [
                        {
                          "typeIdentifier": "t_address",
                          "typeString": "address"
                        }
                      ],
                      "expression": {
                        "argumentTypes": null,
                        "id": 1672,
                        "name": "signers",
                        "nodeType": "Identifier",
                        "overloadedDeclarations": [],
                        "referencedDeclaration": 1613,
                        "src": "681:7:10",
                        "typeDescriptions": {
                          "typeIdentifier": "t_struct$_Role_$1201_storage",
                          "typeString": "struct Roles.Role storage ref"
                        }
                      },
                      "id": 1674,
                      "isConstant": false,
                      "isLValue": true,
                      "isPure": false,
                      "lValueRequested": false,
                      "memberName": "add",
                      "nodeType": "MemberAccess",
                      "referencedDeclaration": 1233,
                      "src": "681:11:10",
                      "typeDescriptions": {
                        "typeIdentifier": "t_function_internal_nonpayable$_t_struct$_Role_$1201_storage_ptr_$_t_address_$returns$__$bound_to$_t_struct$_Role_$1201_storage_ptr_$",
                        "typeString": "function (struct Roles.Role storage pointer,address)"
                      }
                    },
                    "id": 1676,
                    "isConstant": false,
                    "isLValue": false,
                    "isPure": false,
                    "kind": "functionCall",
                    "lValueRequested": false,
                    "names": [],
                    "nodeType": "FunctionCall",
                    "src": "681:20:10",
                    "typeDescriptions": {
                      "typeIdentifier": "t_tuple$__$",
                      "typeString": "tuple()"
                    }
                  },
                  "id": 1677,
                  "nodeType": "ExpressionStatement",
                  "src": "681:20:10"
                },
                {
                  "eventCall": {
                    "argumentTypes": null,
                    "arguments": [
                      {
                        "argumentTypes": null,
                        "id": 1679,
                        "name": "account",
                        "nodeType": "Identifier",
                        "overloadedDeclarations": [],
                        "referencedDeclaration": 1669,
                        "src": "724:7:10",
                        "typeDescriptions": {
                          "typeIdentifier": "t_address",
                          "typeString": "address"
                        }
                      }
                    ],
                    "expression": {
                      "argumentTypes": [
                        {
                          "typeIdentifier": "t_address",
                          "typeString": "address"
                        }
                      ],
                      "id": 1678,
                      "name": "SignerAdded",
                      "nodeType": "Identifier",
                      "overloadedDeclarations": [],
                      "referencedDeclaration": 1607,
                      "src": "712:11:10",
                      "typeDescriptions": {
                        "typeIdentifier": "t_function_event_nonpayable$_t_address_$returns$__$",
                        "typeString": "function (address)"
                      }
                    },
                    "id": 1680,
                    "isConstant": false,
                    "isLValue": false,
                    "isPure": false,
                    "kind": "functionCall",
                    "lValueRequested": false,
                    "names": [],
                    "nodeType": "FunctionCall",
                    "src": "712:20:10",
                    "typeDescriptions": {
                      "typeIdentifier": "t_tuple$__$",
                      "typeString": "tuple()"
                    }
                  },
                  "id": 1681,
                  "nodeType": "EmitStatement",
                  "src": "707:25:10"
                }
              ]
            },
            "documentation": null,
            "id": 1683,
            "implemented": true,
            "isConstructor": false,
            "isDeclaredConst": false,
            "modifiers": [],
            "name": "_addSigner",
            "nodeType": "FunctionDefinition",
            "parameters": {
              "id": 1670,
              "nodeType": "ParameterList",
              "parameters": [
                {
                  "constant": false,
                  "id": 1669,
                  "name": "account",
                  "nodeType": "VariableDeclaration",
                  "scope": 1683,
                  "src": "649:15:10",
                  "stateVariable": false,
                  "storageLocation": "default",
                  "typeDescriptions": {
                    "typeIdentifier": "t_address",
                    "typeString": "address"
                  },
                  "typeName": {
                    "id": 1668,
                    "name": "address",
                    "nodeType": "ElementaryTypeName",
                    "src": "649:7:10",
                    "typeDescriptions": {
                      "typeIdentifier": "t_address",
                      "typeString": "address"
                    }
                  },
                  "value": null,
                  "visibility": "internal"
                }
              ],
              "src": "648:17:10"
            },
            "payable": false,
            "returnParameters": {
              "id": 1671,
              "nodeType": "ParameterList",
              "parameters": [],
              "src": "675:0:10"
            },
            "scope": 1700,
            "src": "629:108:10",
            "stateMutability": "nonpayable",
            "superFunction": null,
            "visibility": "internal"
          },
          {
            "body": {
              "id": 1698,
              "nodeType": "Block",
              "src": "790:67:10",
              "statements": [
                {
                  "expression": {
                    "argumentTypes": null,
                    "arguments": [
                      {
                        "argumentTypes": null,
                        "id": 1691,
                        "name": "account",
                        "nodeType": "Identifier",
                        "overloadedDeclarations": [],
                        "referencedDeclaration": 1685,
                        "src": "811:7:10",
                        "typeDescriptions": {
                          "typeIdentifier": "t_address",
                          "typeString": "address"
                        }
                      }
                    ],
                    "expression": {
                      "argumentTypes": [
                        {
                          "typeIdentifier": "t_address",
                          "typeString": "address"
                        }
                      ],
                      "expression": {
                        "argumentTypes": null,
                        "id": 1688,
                        "name": "signers",
                        "nodeType": "Identifier",
                        "overloadedDeclarations": [],
                        "referencedDeclaration": 1613,
                        "src": "796:7:10",
                        "typeDescriptions": {
                          "typeIdentifier": "t_struct$_Role_$1201_storage",
                          "typeString": "struct Roles.Role storage ref"
                        }
                      },
                      "id": 1690,
                      "isConstant": false,
                      "isLValue": true,
                      "isPure": false,
                      "lValueRequested": false,
                      "memberName": "remove",
                      "nodeType": "MemberAccess",
                      "referencedDeclaration": 1264,
                      "src": "796:14:10",
                      "typeDescriptions": {
                        "typeIdentifier": "t_function_internal_nonpayable$_t_struct$_Role_$1201_storage_ptr_$_t_address_$returns$__$bound_to$_t_struct$_Role_$1201_storage_ptr_$",
                        "typeString": "function (struct Roles.Role storage pointer,address)"
                      }
                    },
                    "id": 1692,
                    "isConstant": false,
                    "isLValue": false,
                    "isPure": false,
                    "kind": "functionCall",
                    "lValueRequested": false,
                    "names": [],
                    "nodeType": "FunctionCall",
                    "src": "796:23:10",
                    "typeDescriptions": {
                      "typeIdentifier": "t_tuple$__$",
                      "typeString": "tuple()"
                    }
                  },
                  "id": 1693,
                  "nodeType": "ExpressionStatement",
                  "src": "796:23:10"
                },
                {
                  "eventCall": {
                    "argumentTypes": null,
                    "arguments": [
                      {
                        "argumentTypes": null,
                        "id": 1695,
                        "name": "account",
                        "nodeType": "Identifier",
                        "overloadedDeclarations": [],
                        "referencedDeclaration": 1685,
                        "src": "844:7:10",
                        "typeDescriptions": {
                          "typeIdentifier": "t_address",
                          "typeString": "address"
                        }
                      }
                    ],
                    "expression": {
                      "argumentTypes": [
                        {
                          "typeIdentifier": "t_address",
                          "typeString": "address"
                        }
                      ],
                      "id": 1694,
                      "name": "SignerRemoved",
                      "nodeType": "Identifier",
                      "overloadedDeclarations": [],
                      "referencedDeclaration": 1611,
                      "src": "830:13:10",
                      "typeDescriptions": {
                        "typeIdentifier": "t_function_event_nonpayable$_t_address_$returns$__$",
                        "typeString": "function (address)"
                      }
                    },
                    "id": 1696,
                    "isConstant": false,
                    "isLValue": false,
                    "isPure": false,
                    "kind": "functionCall",
                    "lValueRequested": false,
                    "names": [],
                    "nodeType": "FunctionCall",
                    "src": "830:22:10",
                    "typeDescriptions": {
                      "typeIdentifier": "t_tuple$__$",
                      "typeString": "tuple()"
                    }
                  },
                  "id": 1697,
                  "nodeType": "EmitStatement",
                  "src": "825:27:10"
                }
              ]
            },
            "documentation": null,
            "id": 1699,
            "implemented": true,
            "isConstructor": false,
            "isDeclaredConst": false,
            "modifiers": [],
            "name": "_removeSigner",
            "nodeType": "FunctionDefinition",
            "parameters": {
              "id": 1686,
              "nodeType": "ParameterList",
              "parameters": [
                {
                  "constant": false,
                  "id": 1685,
                  "name": "account",
                  "nodeType": "VariableDeclaration",
                  "scope": 1699,
                  "src": "764:15:10",
                  "stateVariable": false,
                  "storageLocation": "default",
                  "typeDescriptions": {
                    "typeIdentifier": "t_address",
                    "typeString": "address"
                  },
                  "typeName": {
                    "id": 1684,
                    "name": "address",
                    "nodeType": "ElementaryTypeName",
                    "src": "764:7:10",
                    "typeDescriptions": {
                      "typeIdentifier": "t_address",
                      "typeString": "address"
                    }
                  },
                  "value": null,
                  "visibility": "internal"
                }
              ],
              "src": "763:17:10"
            },
            "payable": false,
            "returnParameters": {
              "id": 1687,
              "nodeType": "ParameterList",
              "parameters": [],
              "src": "790:0:10"
            },
            "scope": 1700,
            "src": "741:116:10",
            "stateMutability": "nonpayable",
            "superFunction": null,
            "visibility": "internal"
          }
        ],
        "scope": 1701,
        "src": "50:809:10"
      }
    ],
    "src": "0:860:10"
  },
  "compiler": {
    "name": "solc",
    "version": "0.4.24+commit.e67f0147.Emscripten.clang"
  },
  "networks": {},
  "schemaVersion": "3.2.3",
  "updatedAt": "2020-09-28T07:24:07.900Z",
  "devdoc": {
    "methods": {}
  },
  "userdoc": {
    "methods": {}
  }
}